﻿,Case ID,Activity,Start Timestamp,Complete Timestamp,Delta Trans,Delta Exec,Delta
6457,Application_2120232738,W_Assess potential fraud,2016/01/25 10:02:38.745,2016/01/25 11:44:26.050,0 days 01:57:25.612000000,0 days 01:41:47.305000000,0 days 03:39:12.917000000
14564,Application_217630695,W_Assess potential fraud,2016/01/20 11:11:31.327,2016/01/21 12:41:51.235,1 days 01:57:46.749000000,1 days 01:30:19.908000000,2 days 03:28:06.657000000
14684,Application_672060895,W_Assess potential fraud,2016/01/21 07:47:25.368,2016/01/21 12:41:35.693,1 days 00:50:45.856000000,0 days 04:54:10.325000000,1 days 05:44:56.181000000
14685,Application_672060895,W_Validate application,2016/01/21 12:41:35.703,2016/01/21 12:41:35.703,0 days 04:54:10.335000000,0 days 00:00:00.000000000,0 days 04:54:10.335000000
23059,Application_1203742645,W_Assess potential fraud,2016/01/27 07:57:43.986,2016/01/28 10:58:36.867,0 days 23:08:33.117000000,1 days 03:00:52.881000000,2 days 02:09:25.998000000
23060,Application_1203742645,W_Validate application,2016/01/28 10:58:36.879,2016/01/28 10:58:36.879,1 days 03:00:52.893000000,0 days 00:00:00.000000000,1 days 03:00:52.893000000
30239,Application_765615310,W_Assess potential fraud,2016/02/02 07:20:05.313,2016/02/03 10:43:59.066,0 days 00:00:15.021000000,1 days 03:23:53.753000000,1 days 03:24:08.774000000
30240,Application_765615310,W_Call after offers,2016/02/03 10:43:59.075,2016/02/03 10:43:59.075,1 days 03:23:53.762000000,0 days 00:00:00.000000000,1 days 03:23:53.762000000
33686,Application_2134379778,W_Assess potential fraud,2016/02/04 05:31:00.557,2016/02/04 07:18:13.816,0 days 18:37:07.756000000,0 days 01:47:13.259000000,0 days 20:24:21.015000000
33687,Application_2134379778,W_Validate application,2016/02/04 07:18:13.823,2016/02/04 07:18:13.823,0 days 01:47:13.266000000,0 days 00:00:00.000000000,0 days 01:47:13.266000000
39053,Application_77630972,W_Assess potential fraud,2016/02/12 12:44:20.920,2016/02/15 04:45:06.526,0 days 00:09:34.875000000,2 days 16:00:45.606000000,2 days 16:10:20.481000000
39054,Application_77630972,W_Validate application,2016/02/15 04:45:06.581,2016/02/15 04:45:06.581,2 days 16:00:45.661000000,0 days 00:00:00.000000000,2 days 16:00:45.661000000
41287,Application_2143933622,W_Assess potential fraud,2016/02/11 11:53:49.696,2016/02/12 06:34:12.187,0 days 00:18:35.521000000,0 days 18:40:22.491000000,0 days 18:58:58.012000000
44173,Application_258789438,W_Assess potential fraud,2016/02/17 10:33:57.493,2016/02/19 04:58:23.170,5 days 01:40:15.455000000,1 days 18:24:25.677000000,6 days 20:04:41.132000000
44685,Application_210176751,W_Assess potential fraud,2016/02/03 05:14:03.406,2016/02/03 07:02:56.653,0 days 10:55:10.845000000,0 days 01:48:53.247000000,0 days 12:44:04.092000000
47774,Application_854107843,W_Assess potential fraud,2016/02/16 05:35:33.613,2016/02/19 04:58:42.365,3 days 22:14:43.701000000,2 days 23:23:08.752000000,6 days 21:37:52.453000000
47775,Application_854107843,A_Denied,2016/02/19 04:58:42.307,2016/02/19 04:58:42.307,2 days 23:23:08.694000000,0 days 00:00:00.000000000,2 days 23:23:08.694000000
47776,Application_854107843,O_Refused,2016/02/19 04:58:42.353,2016/02/19 04:58:42.353,0 days 00:00:00.046000000,0 days 00:00:00.000000000,0 days 00:00:00.046000000
49472,Application_1498465982,W_Assess potential fraud,2016/03/01 07:15:52.785,2016/03/01 09:12:33.851,5 days 01:48:47.771000000,0 days 01:56:41.066000000,5 days 03:45:28.837000000
49473,Application_1498465982,W_Validate application,2016/03/01 09:12:33.862,2016/03/01 09:12:33.862,0 days 01:56:41.077000000,0 days 00:00:00.000000000,0 days 01:56:41.077000000
63299,Application_1760251707,W_Assess potential fraud,2016/02/29 11:51:48.474,2016/03/02 07:42:30.000,5 days 04:22:52.798000000,1 days 19:50:41.526000000,7 days 00:13:34.324000000
63300,Application_1760251707,A_Denied,2016/03/02 07:42:29.949,2016/03/02 07:42:29.949,1 days 19:50:41.475000000,0 days 00:00:00.000000000,1 days 19:50:41.475000000
63301,Application_1760251707,O_Refused,2016/03/02 07:42:29.989,2016/03/02 07:42:29.989,0 days 00:00:00.040000000,0 days 00:00:00.000000000,0 days 00:00:00.040000000
66711,Application_612471425,W_Assess potential fraud,2016/03/07 12:19:40.970,2016/03/07 12:19:56.219,4 days 04:25:44.844000000,0 days 00:00:15.249000000,4 days 04:26:00.093000000
66712,Application_612471425,W_Assess potential fraud,2016/03/07 12:19:56.227,2016/03/09 05:37:17.801,0 days 00:00:15.257000000,1 days 17:17:21.574000000,1 days 17:17:36.831000000
71393,Application_125636605,W_Assess potential fraud,2016/03/01 09:10:37.919,2016/03/07 05:19:00.083,0 days 00:27:37.497000000,5 days 20:08:22.164000000,5 days 20:35:59.661000000
71394,Application_125636605,W_Call after offers,2016/03/07 05:19:00.093,2016/03/07 05:19:00.093,5 days 20:08:22.174000000,0 days 00:00:00.000000000,5 days 20:08:22.174000000
74630,Application_1256364461,W_Assess potential fraud,2016/03/14 10:15:26.210,2016/03/15 10:00:20.596,2 days 02:46:42.509000000,0 days 23:44:54.386000000,3 days 02:31:36.895000000
74631,Application_1256364461,W_Validate application,2016/03/15 10:00:20.605,2016/03/15 10:00:20.605,0 days 23:44:54.395000000,0 days 00:00:00.000000000,0 days 23:44:54.395000000
76478,Application_1689887740,W_Assess potential fraud,2016/03/09 04:00:08.257,2016/03/09 07:40:37.984,0 days 18:22:04.759000000,0 days 03:40:29.727000000,0 days 22:02:34.486000000
77100,Application_247893261,W_Assess potential fraud,2016/03/31 05:29:07.730,2016/04/04 08:37:16.130,2 days 00:33:38.157000000,4 days 03:08:08.400000000,6 days 03:41:46.557000000
77101,Application_247893261,W_Validate application,2016/04/04 08:37:16.146,2016/04/04 08:37:16.146,4 days 03:08:08.416000000,0 days 00:00:00.000000000,4 days 03:08:08.416000000
77211,Application_817000104,W_Assess potential fraud,2016/03/08 07:33:38.158,2016/03/09 09:27:24.545,5 days 01:45:16.284000000,1 days 01:53:46.387000000,6 days 03:39:02.671000000
77212,Application_817000104,W_Validate application,2016/03/09 09:27:24.553,2016/03/09 09:27:24.553,1 days 01:53:46.395000000,0 days 00:00:00.000000000,1 days 01:53:46.395000000
83000,Application_1013582921,W_Assess potential fraud,2016/03/10 11:11:14.794,2016/03/14 06:04:10.812,0 days 04:41:34.675000000,3 days 18:52:56.018000000,3 days 23:34:30.693000000
83001,Application_1013582921,W_Validate application,2016/03/14 06:04:10.821,2016/03/14 06:04:10.821,3 days 18:52:56.027000000,0 days 00:00:00.000000000,3 days 18:52:56.027000000
85919,Application_291595740,W_Assess potential fraud,2016/03/14 05:50:18.082,2016/03/14 10:22:05.863,3 days 22:50:21.195000000,0 days 04:31:47.781000000,4 days 03:22:08.976000000
85920,Application_291595740,W_Validate application,2016/03/14 10:22:05.877,2016/03/14 10:22:05.877,0 days 04:31:47.795000000,0 days 00:00:00.000000000,0 days 04:31:47.795000000
85981,Application_1747310451,W_Assess potential fraud,2016/04/05 10:59:35.824,2016/04/05 11:00:02.538,1 days 05:13:17.027000000,0 days 00:00:26.714000000,1 days 05:13:43.741000000
86222,Application_1408001044,W_Assess potential fraud,2016/03/03 15:16:16.912,2016/03/04 05:20:31.241,0 days 02:05:19.348000000,0 days 14:04:14.329000000,0 days 16:09:33.677000000
87061,Application_1787440277,W_Assess potential fraud,2016/03/04 06:50:50.034,2016/03/04 09:52:36.341,0 days 00:06:24.804000000,0 days 03:01:46.307000000,0 days 03:08:11.111000000
87500,Application_1339294789,W_Assess potential fraud,2016/03/04 10:52:45.120,2016/03/07 06:56:51.708,0 days 00:19:13.236000000,2 days 20:04:06.588000000,2 days 20:23:19.824000000
87501,Application_1339294789,W_Complete application,2016/03/07 06:56:51.718,2016/03/07 06:56:51.718,2 days 20:04:06.598000000,0 days 00:00:00.000000000,2 days 20:04:06.598000000
90254,Application_1363998176,W_Assess potential fraud,2016/03/31 05:05:01.864,2016/04/05 09:40:53.140,5 days 19:49:19.697000000,5 days 04:35:51.276000000,11 days 00:25:10.973000000
90255,Application_1363998176,A_Denied,2016/04/05 09:40:53.044,2016/04/05 09:40:53.044,5 days 04:35:51.180000000,0 days 00:00:00.000000000,5 days 04:35:51.180000000
90256,Application_1363998176,O_Refused,2016/04/05 09:40:53.121,2016/04/05 09:40:53.121,0 days 00:00:00.077000000,0 days 00:00:00.000000000,0 days 00:00:00.077000000
90257,Application_1363998176,O_Refused,2016/04/05 09:40:53.130,2016/04/05 09:40:53.130,0 days 00:00:00.009000000,0 days 00:00:00.000000000,0 days 00:00:00.009000000
97334,Application_900460993,W_Assess potential fraud,2016/03/18 11:31:38.537,2016/03/22 05:45:48.669,4 days 05:01:04.671000000,3 days 18:14:10.132000000,7 days 23:15:14.803000000
97335,Application_900460993,W_Assess potential fraud,2016/03/22 05:45:37.075,2016/03/22 06:32:01.256,3 days 18:13:58.538000000,0 days 00:46:24.181000000,3 days 19:00:22.719000000
97336,Application_900460993,W_Call after offers,2016/03/22 05:45:48.678,2016/03/22 05:45:48.678,0 days 00:00:11.603000000,0 days 00:00:00.000000000,0 days 00:00:11.603000000
97979,Application_382259395,W_Assess potential fraud,2016/03/29 05:26:46.622,2016/03/29 10:27:22.989,3 days 18:30:17.824000000,0 days 05:00:36.367000000,3 days 23:30:54.191000000
97980,Application_382259395,A_Denied,2016/03/29 10:27:22.947,2016/03/29 10:27:22.947,0 days 05:00:36.325000000,0 days 00:00:00.000000000,0 days 05:00:36.325000000
97981,Application_382259395,O_Refused,2016/03/29 10:27:22.978,2016/03/29 10:27:22.978,0 days 00:00:00.031000000,0 days 00:00:00.000000000,0 days 00:00:00.031000000
98020,Application_1959367708,W_Assess potential fraud,2016/03/22 11:43:57.189,2016/03/23 07:56:56.751,0 days 00:12:15.870000000,0 days 20:12:59.562000000,0 days 20:25:15.432000000
98021,Application_1959367708,W_Validate application,2016/03/23 07:56:56.763,2016/03/23 07:56:56.763,0 days 20:12:59.574000000,0 days 00:00:00.000000000,0 days 20:12:59.574000000
99303,Application_1331629354,W_Assess potential fraud,2016/04/05 09:34:48.145,2016/04/06 10:44:33.957,4 days 02:35:57.225000000,1 days 01:09:45.812000000,5 days 03:45:43.037000000
99304,Application_1331629354,A_Denied,2016/04/06 10:44:33.877,2016/04/06 10:44:33.877,1 days 01:09:45.732000000,0 days 00:00:00.000000000,1 days 01:09:45.732000000
99305,Application_1331629354,O_Refused,2016/04/06 10:44:33.922,2016/04/06 10:44:33.922,0 days 00:00:00.045000000,0 days 00:00:00.000000000,0 days 00:00:00.045000000
99306,Application_1331629354,O_Refused,2016/04/06 10:44:33.931,2016/04/06 10:44:33.931,0 days 00:00:00.009000000,0 days 00:00:00.000000000,0 days 00:00:00.009000000
99307,Application_1331629354,O_Refused,2016/04/06 10:44:33.940,2016/04/06 10:44:33.940,0 days 00:00:00.009000000,0 days 00:00:00.000000000,0 days 00:00:00.009000000
102008,Application_213710034,W_Assess potential fraud,2016/03/17 07:55:09.341,2016/03/17 07:55:20.569,0 days 21:22:45.340000000,0 days 00:00:11.228000000,0 days 21:22:56.568000000
102009,Application_213710034,A_Denied,2016/03/17 07:55:20.473,2016/03/17 07:55:20.473,0 days 00:00:11.132000000,0 days 00:00:00.000000000,0 days 00:00:11.132000000
102010,Application_213710034,O_Refused,2016/03/17 07:55:20.543,2016/03/17 07:55:20.543,0 days 00:00:00.070000000,0 days 00:00:00.000000000,0 days 00:00:00.070000000
103565,Application_988069477,W_Assess potential fraud,2016/03/31 06:34:15.027,2016/04/08 06:17:44.325,1 days 23:42:08.769000000,7 days 23:43:29.298000000,9 days 23:25:38.067000000
103566,Application_988069477,A_Denied,2016/04/08 06:17:44.252,2016/04/08 06:17:44.252,7 days 23:43:29.225000000,0 days 00:00:00.000000000,7 days 23:43:29.225000000
103567,Application_988069477,O_Refused,2016/04/08 06:17:44.311,2016/04/08 06:17:44.311,0 days 00:00:00.059000000,0 days 00:00:00.000000000,0 days 00:00:00.059000000
108017,Application_276624028,W_Assess potential fraud,2016/04/01 06:42:10.057,2016/04/05 04:57:03.593,2 days 00:00:10.174000000,3 days 22:14:53.536000000,5 days 22:15:03.710000000
108018,Application_276624028,A_Denied,2016/04/05 04:57:03.523,2016/04/05 04:57:03.523,3 days 22:14:53.466000000,0 days 00:00:00.000000000,3 days 22:14:53.466000000
108019,Application_276624028,O_Refused,2016/04/05 04:57:03.556,2016/04/05 04:57:03.556,0 days 00:00:00.033000000,0 days 00:00:00.000000000,0 days 00:00:00.033000000
108495,Application_40788835,W_Assess potential fraud,2016/04/05 09:57:03.502,2016/04/05 10:52:09.861,0 days 00:00:07.002000000,0 days 00:55:06.359000000,0 days 00:55:13.361000000
108496,Application_40788835,W_Validate application,2016/04/05 10:52:09.872,2016/04/05 10:52:09.872,0 days 00:55:06.370000000,0 days 00:00:00.000000000,0 days 00:55:06.370000000
113655,Application_1407878698,W_Assess potential fraud,2016/04/05 07:14:12.482,2016/04/05 10:12:03.987,7 days 02:38:21.351000000,0 days 02:57:51.505000000,7 days 05:36:12.856000000
113656,Application_1407878698,W_Validate application,2016/04/05 10:12:04.003,2016/04/05 10:12:04.003,0 days 02:57:51.521000000,0 days 00:00:00.000000000,0 days 02:57:51.521000000
114725,Application_939691189,W_Assess potential fraud,2016/04/07 06:47:34.534,2016/04/20 08:46:54.117,1 days 02:32:33.572000000,13 days 01:59:19.583000000,14 days 04:31:53.155000000
119273,Application_1668755806,W_Assess potential fraud,2016/04/07 09:11:27.848,2016/04/08 04:54:13.191,2 days 03:18:26.830000000,0 days 19:42:45.343000000,2 days 23:01:12.173000000
119274,Application_1668755806,W_Validate application,2016/04/08 04:54:13.203,2016/04/08 04:54:13.203,0 days 19:42:45.355000000,0 days 00:00:00.000000000,0 days 19:42:45.355000000
119342,Application_174969704,W_Assess potential fraud,2016/04/04 07:12:04.408,2016/04/05 10:34:13.873,3 days 01:55:06.254000000,1 days 03:22:09.465000000,4 days 05:17:15.719000000
119343,Application_174969704,W_Validate application,2016/04/05 10:34:13.885,2016/04/05 10:34:13.885,1 days 03:22:09.477000000,0 days 00:00:00.000000000,1 days 03:22:09.477000000
128400,Application_797280184,W_Assess potential fraud,2016/04/18 12:11:10.275,2016/04/25 03:19:23.353,0 days 00:39:19.506000000,6 days 15:08:13.078000000,6 days 15:47:32.584000000
128401,Application_797280184,A_Denied,2016/04/25 03:19:23.304,2016/04/25 03:19:23.304,6 days 15:08:13.029000000,0 days 00:00:00.000000000,6 days 15:08:13.029000000
128402,Application_797280184,O_Refused,2016/04/25 03:19:23.339,2016/04/25 03:19:23.339,0 days 00:00:00.035000000,0 days 00:00:00.000000000,0 days 00:00:00.035000000
131259,Application_325568439,W_Assess potential fraud,2016/04/20 09:18:42.732,2016/04/25 07:35:25.202,2 days 03:16:03.959000000,4 days 22:16:42.470000000,7 days 01:32:46.429000000
131260,Application_325568439,A_Denied,2016/04/25 07:35:25.118,2016/04/25 07:35:25.118,4 days 22:16:42.386000000,0 days 00:00:00.000000000,4 days 22:16:42.386000000
131261,Application_325568439,O_Refused,2016/04/25 07:35:25.159,2016/04/25 07:35:25.159,0 days 00:00:00.041000000,0 days 00:00:00.000000000,0 days 00:00:00.041000000
131293,Application_1676196092,W_Assess potential fraud,2016/05/18 07:41:28.499,2016/05/19 11:13:56.083,5 days 02:58:31.251000000,1 days 03:32:27.584000000,6 days 06:30:58.835000000
134769,Application_421454108,W_Assess potential fraud,2016/04/20 11:19:36.134,2016/04/21 06:52:19.351,0 days 02:25:06.937000000,0 days 19:32:43.217000000,0 days 21:57:50.154000000
134770,Application_421454108,W_Validate application,2016/04/21 06:52:19.373,2016/04/21 06:52:19.373,0 days 19:32:43.239000000,0 days 00:00:00.000000000,0 days 19:32:43.239000000
139681,Application_619742006,W_Assess potential fraud,2016/04/14 05:54:43.542,2016/04/15 05:47:32.172,0 days 00:02:09.146000000,0 days 23:52:48.630000000,0 days 23:54:57.776000000
139682,Application_619742006,W_Complete application,2016/04/15 05:47:32.183,2016/04/15 05:47:32.183,0 days 23:52:48.641000000,0 days 00:00:00.000000000,0 days 23:52:48.641000000
140421,Application_81754957,W_Assess potential fraud,2016/04/26 07:14:07.666,2016/05/04 05:57:18.073,5 days 01:30:15.254000000,7 days 22:43:10.407000000,13 days 00:13:25.661000000
140422,Application_81754957,W_Validate application,2016/05/04 05:57:18.087,2016/05/04 05:57:18.087,7 days 22:43:10.421000000,0 days 00:00:00.000000000,7 days 22:43:10.421000000
144821,Application_83584896,W_Assess potential fraud,2016/05/10 10:28:07.077,2016/05/10 10:44:54.306,0 days 00:00:07.001000000,0 days 00:16:47.229000000,0 days 00:16:54.230000000
144822,Application_83584896,W_Call after offers,2016/05/10 10:44:54.323,2016/05/10 10:44:54.323,0 days 00:16:47.246000000,0 days 00:00:00.000000000,0 days 00:16:47.246000000
150147,Application_1541112355,W_Assess potential fraud,2016/05/09 05:07:14.296,2016/05/10 11:27:03.732,3 days 00:16:53.985000000,1 days 06:19:49.436000000,4 days 06:36:43.421000000
150148,Application_1541112355,W_Validate application,2016/05/10 11:27:03.747,2016/05/10 11:27:03.747,1 days 06:19:49.451000000,0 days 00:00:00.000000000,1 days 06:19:49.451000000
151353,Application_2093424318,W_Assess potential fraud,2016/04/29 07:33:07.397,2016/05/04 10:56:09.466,0 days 21:56:33.613000000,5 days 03:23:02.069000000,6 days 01:19:35.682000000
151994,Application_860809246,W_Assess potential fraud,2016/05/09 09:38:24.642,2016/05/13 09:57:49.624,5 days 01:20:04.916000000,4 days 00:19:24.982000000,9 days 01:39:29.898000000
153010,Application_486250138,W_Assess potential fraud,2016/05/17 03:40:06.905,2016/05/17 03:44:03.342,3 days 18:36:18.544000000,0 days 00:03:56.437000000,3 days 18:40:14.981000000
153011,Application_486250138,W_Validate application,2016/05/17 03:44:03.353,2016/05/17 03:44:03.353,0 days 00:03:56.448000000,0 days 00:00:00.000000000,0 days 00:03:56.448000000
160655,Application_534041276,W_Assess potential fraud,2016/05/12 09:55:04.871,2016/05/12 09:55:29.912,2 days 02:41:57.150000000,0 days 00:00:25.041000000,2 days 02:42:22.191000000
160814,Application_816862790,W_Assess potential fraud,2016/05/11 10:48:35.026,2016/05/12 05:25:58.123,1 days 04:01:11.139000000,0 days 18:37:23.097000000,1 days 22:38:34.236000000
160815,Application_816862790,A_Denied,2016/05/12 05:25:58.002,2016/05/12 05:25:58.002,0 days 18:37:22.976000000,0 days 00:00:00.000000000,0 days 18:37:22.976000000
160816,Application_816862790,O_Refused,2016/05/12 05:25:58.059,2016/05/12 05:25:58.059,0 days 00:00:00.057000000,0 days 00:00:00.000000000,0 days 00:00:00.057000000
161377,Application_1003257895,W_Assess potential fraud,2016/06/15 03:26:21.690,2016/06/17 09:32:11.386,4 days 17:26:12.768000000,2 days 06:05:49.696000000,6 days 23:32:02.464000000
161931,Application_1238299456,W_Assess potential fraud,2016/05/12 09:25:33.801,2016/05/12 11:42:48.969,1 days 04:18:12.717000000,0 days 02:17:15.168000000,1 days 06:35:27.885000000
161932,Application_1238299456,W_Validate application,2016/05/12 11:42:48.979,2016/05/12 11:42:48.979,0 days 02:17:15.178000000,0 days 00:00:00.000000000,0 days 02:17:15.178000000
165180,Application_80063242,W_Assess potential fraud,2016/06/09 04:35:23.630,2016/06/10 02:56:52.954,0 days 19:14:27.547000000,0 days 22:21:29.324000000,1 days 17:35:56.871000000
165181,Application_80063242,A_Denied,2016/06/10 02:56:52.855,2016/06/10 02:56:52.855,0 days 22:21:29.225000000,0 days 00:00:00.000000000,0 days 22:21:29.225000000
165182,Application_80063242,O_Refused,2016/06/10 02:56:52.925,2016/06/10 02:56:52.925,0 days 00:00:00.070000000,0 days 00:00:00.000000000,0 days 00:00:00.070000000
165183,Application_80063242,O_Refused,2016/06/10 02:56:52.941,2016/06/10 02:56:52.941,0 days 00:00:00.016000000,0 days 00:00:00.000000000,0 days 00:00:00.016000000
166515,Application_540215973,W_Assess potential fraud,2016/05/23 06:30:20.397,2016/05/24 08:43:00.401,0 days 00:00:10.670000000,1 days 02:12:40.004000000,1 days 02:12:50.674000000
166516,Application_540215973,A_Denied,2016/05/24 08:43:00.360,2016/05/24 08:43:00.360,1 days 02:12:39.963000000,0 days 00:00:00.000000000,1 days 02:12:39.963000000
166517,Application_540215973,O_Refused,2016/05/24 08:43:00.389,2016/05/24 08:43:00.389,0 days 00:00:00.029000000,0 days 00:00:00.000000000,0 days 00:00:00.029000000
168238,Application_831530055,W_Assess potential fraud,2016/05/23 08:54:21.136,2016/05/26 04:37:25.215,3 days 03:25:14.218000000,2 days 19:43:04.079000000,5 days 23:08:18.297000000
168239,Application_831530055,W_Validate application,2016/05/26 04:24:01.542,2016/05/26 04:24:01.542,2 days 19:29:40.406000000,0 days 00:00:00.000000000,2 days 19:29:40.406000000
169123,Application_1299660169,W_Assess potential fraud,2016/05/13 08:50:33.727,2016/05/13 09:32:03.240,0 days 00:00:05.873000000,0 days 00:41:29.513000000,0 days 00:41:35.386000000
169124,Application_1299660169,W_Call after offers,2016/05/13 09:32:03.260,2016/05/13 09:32:03.260,0 days 00:41:29.533000000,0 days 00:00:00.000000000,0 days 00:41:29.533000000
169151,Application_1994370200,W_Assess potential fraud,2016/06/29 03:34:00.951,2016/06/29 10:42:31.979,4 days 17:56:51.951000000,0 days 07:08:31.028000000,5 days 01:05:22.979000000
169152,Application_1994370200,A_Denied,2016/06/29 10:42:31.857,2016/06/29 10:42:31.857,0 days 07:08:30.906000000,0 days 00:00:00.000000000,0 days 07:08:30.906000000
169153,Application_1994370200,O_Refused,2016/06/29 10:42:31.958,2016/06/29 10:42:31.958,0 days 00:00:00.101000000,0 days 00:00:00.000000000,0 days 00:00:00.101000000
169154,Application_1994370200,O_Refused,2016/06/29 10:42:31.967,2016/06/29 10:42:31.967,0 days 00:00:00.009000000,0 days 00:00:00.000000000,0 days 00:00:00.009000000
169599,Application_776906675,W_Assess potential fraud,2016/05/24 07:09:08.476,2016/05/24 09:47:21.487,1 days 01:53:26.642000000,0 days 02:38:13.011000000,1 days 04:31:39.653000000
169600,Application_776906675,W_Validate application,2016/05/24 09:47:21.501,2016/05/24 09:47:21.501,0 days 02:38:13.025000000,0 days 00:00:00.000000000,0 days 02:38:13.025000000
171543,Application_346042050,W_Assess potential fraud,2016/05/23 09:29:31.467,2016/05/31 02:46:48.847,0 days 04:00:25.045000000,7 days 17:17:17.380000000,7 days 21:17:42.425000000
171544,Application_346042050,A_Denied,2016/05/31 02:46:48.627,2016/05/31 02:46:48.627,7 days 17:17:17.160000000,0 days 00:00:00.000000000,7 days 17:17:17.160000000
171545,Application_346042050,O_Refused,2016/05/31 02:46:48.712,2016/05/31 02:46:48.712,0 days 00:00:00.085000000,0 days 00:00:00.000000000,0 days 00:00:00.085000000
171915,Application_339180061,W_Assess potential fraud,2016/05/31 06:20:35.435,2016/05/31 10:04:22.938,0 days 01:19:00.342000000,0 days 03:43:47.503000000,0 days 05:02:47.845000000
171916,Application_339180061,W_Validate application,2016/05/31 10:04:22.955,2016/05/31 10:04:22.955,0 days 03:43:47.520000000,0 days 00:00:00.000000000,0 days 03:43:47.520000000
172360,Application_1552373930,W_Assess potential fraud,2016/05/26 08:58:19.919,2016/06/02 07:15:15.643,1 days 02:42:56.961000000,6 days 22:16:55.724000000,8 days 00:59:52.685000000
172797,Application_894816076,W_Assess potential fraud,2016/06/01 07:50:19.514,2016/06/06 10:41:56.874,0 days 03:27:09.855000000,5 days 02:51:37.360000000,5 days 06:18:47.215000000
173713,Application_412627378,W_Assess potential fraud,2016/05/19 06:57:38.522,2016/05/19 07:43:23.843,1 days 21:54:32.223000000,0 days 00:45:45.321000000,1 days 22:40:17.544000000
173714,Application_412627378,W_Assess potential fraud,2016/05/19 07:43:23.860,2016/05/19 09:42:00.234,0 days 00:45:45.338000000,0 days 01:58:36.374000000,0 days 02:44:21.712000000
174274,Application_1965993805,W_Assess potential fraud,2016/05/13 06:41:42.344,2016/05/13 08:54:00.478,1 days 23:11:48.107000000,0 days 02:12:18.134000000,2 days 01:24:06.241000000
174275,Application_1965993805,A_Denied,2016/05/13 08:54:00.440,2016/05/13 08:54:00.440,0 days 02:12:18.096000000,0 days 00:00:00.000000000,0 days 02:12:18.096000000
174276,Application_1965993805,O_Refused,2016/05/13 08:54:00.468,2016/05/13 08:54:00.468,0 days 00:00:00.028000000,0 days 00:00:00.000000000,0 days 00:00:00.028000000
175332,Application_571618271,W_Assess potential fraud,2016/05/17 03:23:08.712,2016/05/23 07:39:20.326,5 days 16:32:42.461000000,6 days 04:16:11.614000000,11 days 20:48:54.075000000
175333,Application_571618271,A_Denied,2016/05/23 07:39:20.269,2016/05/23 07:39:20.269,6 days 04:16:11.557000000,0 days 00:00:00.000000000,6 days 04:16:11.557000000
175334,Application_571618271,O_Refused,2016/05/23 07:39:20.309,2016/05/23 07:39:20.309,0 days 00:00:00.040000000,0 days 00:00:00.000000000,0 days 00:00:00.040000000
176045,Application_1567894569,W_Assess potential fraud,2016/05/26 06:24:30.945,2016/06/14 08:46:23.456,0 days 22:06:53.688000000,19 days 02:21:52.511000000,20 days 00:28:46.199000000
176046,Application_1567894569,A_Denied,2016/06/14 08:46:23.205,2016/06/14 08:46:23.205,19 days 02:21:52.260000000,0 days 00:00:00.000000000,19 days 02:21:52.260000000
176047,Application_1567894569,O_Refused,2016/06/14 08:46:23.420,2016/06/14 08:46:23.420,0 days 00:00:00.215000000,0 days 00:00:00.000000000,0 days 00:00:00.215000000
182497,Application_1280500254,W_Assess potential fraud,2016/06/08 10:23:53.838,2016/06/13 07:23:08.417,0 days 02:41:53.925000000,4 days 20:59:14.579000000,4 days 23:41:08.504000000
182498,Application_1280500254,W_Validate application,2016/06/13 07:23:08.427,2016/06/13 07:23:08.427,4 days 20:59:14.589000000,0 days 00:00:00.000000000,4 days 20:59:14.589000000
182517,Application_364658802,W_Assess potential fraud,2016/05/24 06:11:28.228,2016/05/25 06:22:39.451,1 days 01:26:27.374000000,1 days 00:11:11.223000000,2 days 01:37:38.597000000
182518,Application_364658802,W_Validate application,2016/05/25 06:22:39.462,2016/05/25 06:22:39.462,1 days 00:11:11.234000000,0 days 00:00:00.000000000,1 days 00:11:11.234000000
185919,Application_1626377486,W_Assess potential fraud,2016/06/27 10:36:39.232,2016/06/28 06:13:04.985,0 days 00:41:51.566000000,0 days 19:36:25.753000000,0 days 20:18:17.319000000
185920,Application_1626377486,A_Denied,2016/06/28 06:13:04.681,2016/06/28 06:13:04.681,0 days 19:36:25.449000000,0 days 00:00:00.000000000,0 days 19:36:25.449000000
185921,Application_1626377486,O_Refused,2016/06/28 06:13:04.778,2016/06/28 06:13:04.778,0 days 00:00:00.097000000,0 days 00:00:00.000000000,0 days 00:00:00.097000000
191065,Application_131383905,W_Assess potential fraud,2016/06/28 11:02:11.155,2016/07/01 03:55:34.909,0 days 00:02:29.430000000,2 days 16:53:23.754000000,2 days 16:55:53.184000000
199623,Application_1554722104,W_Assess potential fraud,2016/07/08 04:34:54.335,2016/07/08 05:14:15.351,0 days 15:40:50.705000000,0 days 00:39:21.016000000,0 days 16:20:11.721000000
199624,Application_1554722104,W_Validate application,2016/07/08 05:14:15.364,2016/07/08 05:14:15.364,0 days 00:39:21.029000000,0 days 00:00:00.000000000,0 days 00:39:21.029000000
202041,Application_1680536322,W_Assess potential fraud,2016/06/14 09:06:04.155,2016/06/14 09:13:09.019,1 days 05:03:40.349000000,0 days 00:07:04.864000000,1 days 05:10:45.213000000
202042,Application_1680536322,W_Validate application,2016/06/14 09:13:09.030,2016/06/14 09:13:09.030,0 days 00:07:04.875000000,0 days 00:00:00.000000000,0 days 00:07:04.875000000
202572,Application_1221917431,W_Assess potential fraud,2016/07/06 04:58:33.593,2016/07/06 06:35:58.622,0 days 20:22:21.943000000,0 days 01:37:25.029000000,0 days 21:59:46.972000000
202573,Application_1221917431,W_Validate application,2016/07/06 06:35:58.640,2016/07/06 06:35:58.640,0 days 01:37:25.047000000,0 days 00:00:00.000000000,0 days 01:37:25.047000000
204216,Application_297480993,W_Assess potential fraud,2016/06/24 06:19:54.959,2016/06/28 05:44:07.365,0 days 02:19:58.146000000,3 days 23:24:12.406000000,4 days 01:44:10.552000000
204217,Application_297480993,W_Call after offers,2016/06/28 05:44:07.374,2016/06/28 05:44:07.374,3 days 23:24:12.415000000,0 days 00:00:00.000000000,3 days 23:24:12.415000000
211203,Application_1021748617,W_Assess potential fraud,2016/06/20 10:30:36.758,2016/06/20 10:31:57.643,0 days 00:00:15.924000000,0 days 00:01:20.885000000,0 days 00:01:36.809000000
211204,Application_1021748617,W_Assess potential fraud,2016/06/20 10:31:57.708,2016/06/21 05:54:00.134,0 days 00:01:20.950000000,0 days 19:22:02.426000000,0 days 19:23:23.376000000
211205,Application_1021748617,A_Denied,2016/06/21 05:54:00.072,2016/06/21 05:54:00.072,0 days 19:22:02.364000000,0 days 00:00:00.000000000,0 days 19:22:02.364000000
211206,Application_1021748617,O_Refused,2016/06/21 05:54:00.117,2016/06/21 05:54:00.117,0 days 00:00:00.045000000,0 days 00:00:00.000000000,0 days 00:00:00.045000000
213413,Application_1908753603,W_Assess potential fraud,2016/06/17 05:45:19.671,2016/06/17 09:41:10.565,0 days 01:01:48.511000000,0 days 03:55:50.894000000,0 days 04:57:39.405000000
217294,Application_1114052248,W_Assess potential fraud,2016/06/20 11:23:00.660,2016/06/22 09:00:48.254,0 days 06:27:53.547000000,1 days 21:37:47.594000000,2 days 04:05:41.141000000
217295,Application_1114052248,A_Denied,2016/06/22 09:00:48.088,2016/06/22 09:00:48.088,1 days 21:37:47.428000000,0 days 00:00:00.000000000,1 days 21:37:47.428000000
217296,Application_1114052248,O_Refused,2016/06/22 09:00:48.238,2016/06/22 09:00:48.238,0 days 00:00:00.150000000,0 days 00:00:00.000000000,0 days 00:00:00.150000000
218121,Application_1177434639,W_Assess potential fraud,2016/06/11 08:03:31.161,2016/06/13 03:25:13.396,0 days 15:17:12.096000000,1 days 19:21:42.235000000,2 days 10:38:54.331000000
225740,Application_617577405,W_Assess potential fraud,2016/06/23 03:55:51.910,2016/06/23 11:06:19.088,1 days 21:28:50.371000000,0 days 07:10:27.178000000,2 days 04:39:17.549000000
225741,Application_617577405,A_Denied,2016/06/23 11:06:18.931,2016/06/23 11:06:18.931,0 days 07:10:27.021000000,0 days 00:00:00.000000000,0 days 07:10:27.021000000
225742,Application_617577405,O_Refused,2016/06/23 11:06:19.065,2016/06/23 11:06:19.065,0 days 00:00:00.134000000,0 days 00:00:00.000000000,0 days 00:00:00.134000000
225743,Application_617577405,O_Refused,2016/06/23 11:06:19.076,2016/06/23 11:06:19.076,0 days 00:00:00.011000000,0 days 00:00:00.000000000,0 days 00:00:00.011000000
234878,Application_904285318,W_Assess potential fraud,2016/07/14 05:39:57.492,2016/07/14 09:28:28.741,1 days 02:07:28.199000000,0 days 03:48:31.249000000,1 days 05:55:59.448000000
234879,Application_904285318,A_Denied,2016/07/14 09:28:28.672,2016/07/14 09:28:28.672,0 days 03:48:31.180000000,0 days 00:00:00.000000000,0 days 03:48:31.180000000
234880,Application_904285318,O_Refused,2016/07/14 09:28:28.713,2016/07/14 09:28:28.713,0 days 00:00:00.041000000,0 days 00:00:00.000000000,0 days 00:00:00.041000000
234881,Application_904285318,O_Refused,2016/07/14 09:28:28.721,2016/07/14 09:28:28.721,0 days 00:00:00.008000000,0 days 00:00:00.000000000,0 days 00:00:00.008000000
234882,Application_904285318,O_Refused,2016/07/14 09:28:28.729,2016/07/14 09:28:28.729,0 days 00:00:00.008000000,0 days 00:00:00.000000000,0 days 00:00:00.008000000
235112,Application_248034274,W_Assess potential fraud,2016/07/04 07:15:45.780,2016/07/04 08:01:06.562,0 days 01:18:48.845000000,0 days 00:45:20.782000000,0 days 02:04:09.627000000
235113,Application_248034274,W_Validate application,2016/07/04 08:01:06.603,2016/07/04 08:01:06.603,0 days 00:45:20.823000000,0 days 00:00:00.000000000,0 days 00:45:20.823000000
239962,Application_1997244808,W_Assess potential fraud,2016/07/07 06:54:23.606,2016/07/14 04:45:24.569,6 days 20:17:51.047000000,6 days 21:51:00.963000000,13 days 18:08:52.010000000
239963,Application_1997244808,A_Denied,2016/07/14 04:45:24.527,2016/07/14 04:45:24.527,6 days 21:51:00.921000000,0 days 00:00:00.000000000,6 days 21:51:00.921000000
239964,Application_1997244808,O_Refused,2016/07/14 04:45:24.559,2016/07/14 04:45:24.559,0 days 00:00:00.032000000,0 days 00:00:00.000000000,0 days 00:00:00.032000000
241933,Application_1499353501,W_Assess potential fraud,2016/07/12 09:12:39.015,2016/07/15 04:32:56.183,0 days 00:06:59.750000000,2 days 19:20:17.168000000,2 days 19:27:16.918000000
241934,Application_1499353501,W_Validate application,2016/07/15 04:32:56.205,2016/07/15 04:32:56.205,2 days 19:20:17.190000000,0 days 00:00:00.000000000,2 days 19:20:17.190000000
243973,Application_1946889494,W_Assess potential fraud,2016/07/13 08:46:56.783,2016/07/13 10:53:53.878,0 days 02:50:59.340000000,0 days 02:06:57.095000000,0 days 04:57:56.435000000
243974,Application_1946889494,W_Validate application,2016/07/13 10:53:53.907,2016/07/13 10:53:53.907,0 days 02:06:57.124000000,0 days 00:00:00.000000000,0 days 02:06:57.124000000
245003,Application_276693673,W_Assess potential fraud,2016/07/12 05:16:30.168,2016/07/12 09:17:45.654,5 days 18:34:02.953000000,0 days 04:01:15.486000000,5 days 22:35:18.439000000
245004,Application_276693673,A_Denied,2016/07/12 09:17:45.302,2016/07/12 09:17:45.302,0 days 04:01:15.134000000,0 days 00:00:00.000000000,0 days 04:01:15.134000000
245005,Application_276693673,O_Refused,2016/07/12 09:17:45.638,2016/07/12 09:17:45.638,0 days 00:00:00.336000000,0 days 00:00:00.000000000,0 days 00:00:00.336000000
249983,Application_2130263468,W_Assess potential fraud,2016/07/25 04:00:18.938,2016/07/27 02:42:55.895,6 days 21:03:35.507000000,1 days 22:42:36.957000000,8 days 19:46:12.464000000
249984,Application_2130263468,W_Validate application,2016/07/27 02:42:55.915,2016/07/27 02:42:55.915,1 days 22:42:36.977000000,0 days 00:00:00.000000000,1 days 22:42:36.977000000
251413,Application_1507254300,W_Assess potential fraud,2016/07/11 05:47:02.814,2016/07/11 09:31:27.435,2 days 23:32:25.590000000,0 days 03:44:24.621000000,3 days 03:16:50.211000000
251414,Application_1507254300,W_Validate application,2016/07/11 09:31:27.516,2016/07/11 09:31:27.516,0 days 03:44:24.702000000,0 days 00:00:00.000000000,0 days 03:44:24.702000000
252056,Application_1412323927,W_Assess potential fraud,2016/07/24 14:28:13.318,2016/07/27 10:24:02.388,5 days 06:03:47.998000000,2 days 19:55:49.070000000,8 days 01:59:37.068000000
252057,Application_1412323927,A_Denied,2016/07/27 10:24:02.344,2016/07/27 10:24:02.344,2 days 19:55:49.026000000,0 days 00:00:00.000000000,2 days 19:55:49.026000000
252058,Application_1412323927,O_Refused,2016/07/27 10:24:02.378,2016/07/27 10:24:02.378,0 days 00:00:00.034000000,0 days 00:00:00.000000000,0 days 00:00:00.034000000
252425,Application_602711124,W_Assess potential fraud,2016/07/13 06:24:58.049,2016/07/14 04:29:11.315,0 days 01:58:52.864000000,0 days 22:04:13.266000000,1 days 00:03:06.130000000
252426,Application_602711124,W_Validate application,2016/07/14 04:29:11.336,2016/07/14 04:29:11.336,0 days 22:04:13.287000000,0 days 00:00:00.000000000,0 days 22:04:13.287000000
263362,Application_496698057,W_Assess potential fraud,2016/07/28 08:38:18.451,2016/07/29 02:48:24.936,3 days 03:02:34.992000000,0 days 18:10:06.485000000,3 days 21:12:41.477000000
263363,Application_496698057,W_Validate application,2016/07/29 02:48:24.948,2016/07/29 02:48:24.948,0 days 18:10:06.497000000,0 days 00:00:00.000000000,0 days 18:10:06.497000000
265250,Application_679418218,W_Assess potential fraud,2016/07/14 10:32:09.121,2016/07/15 09:56:19.809,3 days 04:21:06.864000000,0 days 23:24:10.688000000,4 days 03:45:17.552000000
265251,Application_679418218,W_Validate application,2016/07/15 09:56:19.818,2016/07/15 09:56:19.818,0 days 23:24:10.697000000,0 days 00:00:00.000000000,0 days 23:24:10.697000000
266957,Application_473455481,W_Assess potential fraud,2016/08/10 08:50:33.769,2016/08/18 04:12:22.725,1 days 01:59:10.544000000,7 days 19:21:48.956000000,8 days 21:20:59.500000000
266958,Application_473455481,W_Validate application,2016/08/18 04:12:22.753,2016/08/18 04:12:22.753,7 days 19:21:48.984000000,0 days 00:00:00.000000000,7 days 19:21:48.984000000
266959,Application_473455481,W_Assess potential fraud,2016/08/18 04:31:52.883,2016/08/25 08:03:54.059,0 days 00:19:30.130000000,7 days 03:32:01.176000000,7 days 03:51:31.306000000
268442,Application_1938093015,W_Assess potential fraud,2016/07/27 05:19:34.986,2016/08/03 02:53:05.006,8 days 23:56:52.804000000,6 days 21:33:30.020000000,15 days 21:30:22.824000000
268443,Application_1938093015,A_Denied,2016/08/03 02:53:04.925,2016/08/03 02:53:04.925,6 days 21:33:29.939000000,0 days 00:00:00.000000000,6 days 21:33:29.939000000
268444,Application_1938093015,O_Refused,2016/08/03 02:53:04.963,2016/08/03 02:53:04.963,0 days 00:00:00.038000000,0 days 00:00:00.000000000,0 days 00:00:00.038000000
268936,Application_1661566710,W_Assess potential fraud,2016/08/03 08:46:40.159,2016/08/04 03:25:09.384,6 days 02:52:02.940000000,0 days 18:38:29.225000000,6 days 21:30:32.165000000
268937,Application_1661566710,W_Validate application,2016/08/04 03:25:09.394,2016/08/04 03:25:09.394,0 days 18:38:29.235000000,0 days 00:00:00.000000000,0 days 18:38:29.235000000
269500,Application_250077480,W_Assess potential fraud,2016/07/15 10:58:11.689,2016/07/19 05:26:14.197,2 days 03:37:39.482000000,3 days 18:28:02.508000000,5 days 22:05:41.990000000
269715,Application_282538124,W_Assess potential fraud,2016/07/22 05:55:41.659,2016/10/18 11:42:17.273,3 days 20:27:44.298000000,88 days 05:46:35.614000000,92 days 02:14:19.912000000
269716,Application_282538124,A_Denied,2016/10/18 11:42:17.243,2016/10/18 11:42:17.243,88 days 05:46:35.584000000,0 days 00:00:00.000000000,88 days 05:46:35.584000000
269717,Application_282538124,O_Refused,2016/10/18 11:42:17.266,2016/10/18 11:42:17.266,0 days 00:00:00.023000000,0 days 00:00:00.000000000,0 days 00:00:00.023000000
270872,Application_2071585565,W_Assess potential fraud,2016/07/19 04:49:11.230,2016/07/22 04:33:41.210,4 days 16:21:57.812000000,2 days 23:44:29.980000000,7 days 16:06:27.792000000
270873,Application_2071585565,A_Denied,2016/07/22 04:33:41.133,2016/07/22 04:33:41.133,2 days 23:44:29.903000000,0 days 00:00:00.000000000,2 days 23:44:29.903000000
270874,Application_2071585565,O_Refused,2016/07/22 04:33:41.197,2016/07/22 04:33:41.197,0 days 00:00:00.064000000,0 days 00:00:00.000000000,0 days 00:00:00.064000000
271031,Application_151521797,W_Assess potential fraud,2016/07/19 04:24:02.996,2016/07/19 07:47:41.062,3 days 23:48:14.820000000,0 days 03:23:38.066000000,4 days 03:11:52.886000000
271032,Application_151521797,W_Validate application,2016/07/19 07:47:41.071,2016/07/19 07:47:41.071,0 days 03:23:38.075000000,0 days 00:00:00.000000000,0 days 03:23:38.075000000
276277,Application_2131387077,W_Assess potential fraud,2016/07/20 10:43:35.275,2016/07/21 03:58:54.241,1 days 06:04:18.520000000,0 days 17:15:18.966000000,1 days 23:19:37.486000000
276278,Application_2131387077,W_Validate application,2016/07/21 03:58:54.249,2016/07/21 03:58:54.249,0 days 17:15:18.974000000,0 days 00:00:00.000000000,0 days 17:15:18.974000000
276785,Application_1242545671,W_Assess potential fraud,2016/08/03 04:12:01.831,2016/08/03 06:27:50.632,0 days 17:22:47.985000000,0 days 02:15:48.801000000,0 days 19:38:36.786000000
276786,Application_1242545671,W_Validate application,2016/08/03 06:27:50.640,2016/08/03 06:27:50.640,0 days 02:15:48.809000000,0 days 00:00:00.000000000,0 days 02:15:48.809000000
280185,Application_2096883387,W_Assess potential fraud,2016/07/20 10:42:20.923,2016/07/25 06:43:29.346,0 days 02:21:02.896000000,4 days 20:01:08.423000000,4 days 22:22:11.319000000
280186,Application_2096883387,A_Denied,2016/07/25 06:43:29.295,2016/07/25 06:43:29.295,4 days 20:01:08.372000000,0 days 00:00:00.000000000,4 days 20:01:08.372000000
280187,Application_2096883387,O_Refused,2016/07/25 06:43:29.335,2016/07/25 06:43:29.335,0 days 00:00:00.040000000,0 days 00:00:00.000000000,0 days 00:00:00.040000000
282210,Application_19470782,W_Assess potential fraud,2016/07/28 07:16:59.434,2016/07/29 03:24:01.139,1 days 20:31:44.976000000,0 days 20:07:01.705000000,2 days 16:38:46.681000000
282211,Application_19470782,W_Validate application,2016/07/29 03:24:01.148,2016/07/29 03:24:01.148,0 days 20:07:01.714000000,0 days 00:00:00.000000000,0 days 20:07:01.714000000
283963,Application_1842464968,W_Assess potential fraud,2016/08/05 10:47:52.225,2016/08/08 04:49:02.838,0 days 06:08:25.566000000,2 days 18:01:10.613000000,3 days 00:09:36.179000000
283964,Application_1842464968,W_Validate application,2016/08/08 04:49:02.875,2016/08/08 04:49:02.875,2 days 18:01:10.650000000,0 days 00:00:00.000000000,2 days 18:01:10.650000000
284779,Application_1559902945,W_Assess potential fraud,2016/08/01 08:16:13.006,2016/08/01 09:56:05.905,4 days 22:59:25.795000000,0 days 01:39:52.899000000,5 days 00:39:18.694000000
284780,Application_1559902945,W_Validate application,2016/08/01 09:56:05.915,2016/08/01 09:56:05.915,0 days 01:39:52.909000000,0 days 00:00:00.000000000,0 days 01:39:52.909000000
287476,Application_944269054,W_Assess potential fraud,2016/08/01 06:44:55.485,2016/08/02 03:44:03.826,4 days 18:55:37.778000000,0 days 20:59:08.341000000,5 days 15:54:46.119000000
287477,Application_944269054,W_Validate application,2016/08/02 03:44:03.837,2016/08/02 03:44:03.837,0 days 20:59:08.352000000,0 days 00:00:00.000000000,0 days 20:59:08.352000000
290138,Application_1027235358,W_Assess potential fraud,2016/07/28 06:50:22.032,2016/07/28 09:19:26.222,0 days 23:54:47.401000000,0 days 02:29:04.190000000,1 days 02:23:51.591000000
290139,Application_1027235358,W_Validate application,2016/07/28 09:19:26.233,2016/07/28 09:19:26.233,0 days 02:29:04.201000000,0 days 00:00:00.000000000,0 days 02:29:04.201000000
291119,Application_1419380655,W_Assess potential fraud,2016/08/05 13:07:17.868,2016/09/19 09:08:44.007,4 days 04:51:05.132000000,44 days 20:01:26.139000000,49 days 00:52:31.271000000
291120,Application_1419380655,A_Denied,2016/09/19 09:08:43.975,2016/09/19 09:08:43.975,44 days 20:01:26.107000000,0 days 00:00:00.000000000,44 days 20:01:26.107000000
291121,Application_1419380655,O_Refused,2016/09/19 09:08:43.999,2016/09/19 09:08:43.999,0 days 00:00:00.024000000,0 days 00:00:00.000000000,0 days 00:00:00.024000000
294079,Application_1202495955,W_Assess potential fraud,2016/07/22 10:57:55.933,2016/07/25 02:47:29.866,0 days 00:53:10.283000000,2 days 15:49:33.933000000,2 days 16:42:44.216000000
296280,Application_1916398049,W_Assess potential fraud,2016/08/03 10:32:59.703,2016/08/04 03:16:09.143,0 days 03:49:00.696000000,0 days 16:43:09.440000000,0 days 20:32:10.136000000
296281,Application_1916398049,W_Validate application,2016/08/04 03:16:09.153,2016/08/04 03:16:09.153,0 days 16:43:09.450000000,0 days 00:00:00.000000000,0 days 16:43:09.450000000
297770,Application_1313695020,W_Assess potential fraud,2016/08/15 02:31:55.666,2016/08/25 03:43:16.854,11 days 15:36:23.934000000,10 days 01:11:21.188000000,21 days 16:47:45.122000000
297771,Application_1313695020,A_Denied,2016/08/25 03:43:16.823,2016/08/25 03:43:16.823,10 days 01:11:21.157000000,0 days 00:00:00.000000000,10 days 01:11:21.157000000
297772,Application_1313695020,O_Refused,2016/08/25 03:43:16.845,2016/08/25 03:43:16.845,0 days 00:00:00.022000000,0 days 00:00:00.000000000,0 days 00:00:00.022000000
301835,Application_1292983087,W_Assess potential fraud,2016/08/11 05:05:11.007,2016/08/11 05:05:51.911,5 days 19:05:05.604000000,0 days 00:00:40.904000000,5 days 19:05:46.508000000
301836,Application_1292983087,W_Assess potential fraud,2016/08/11 05:05:51.919,2016/08/15 08:50:39.782,0 days 00:00:40.912000000,4 days 03:44:47.863000000,4 days 03:45:28.775000000
301837,Application_1292983087,W_Validate application,2016/08/15 08:50:39.803,2016/08/15 08:50:39.803,4 days 03:44:47.884000000,0 days 00:00:00.000000000,4 days 03:44:47.884000000
301838,Application_1292983087,W_Assess potential fraud,2016/08/15 10:01:23.409,2016/10/07 04:04:40.985,0 days 01:10:43.606000000,52 days 18:03:17.576000000,52 days 19:14:01.182000000
301839,Application_1292983087,A_Denied,2016/10/07 04:04:40.950,2016/10/07 04:04:40.950,52 days 18:03:17.541000000,0 days 00:00:00.000000000,52 days 18:03:17.541000000
301840,Application_1292983087,O_Refused,2016/10/07 04:04:40.976,2016/10/07 04:04:40.976,0 days 00:00:00.026000000,0 days 00:00:00.000000000,0 days 00:00:00.026000000
309065,Application_177466388,W_Assess potential fraud,2016/08/16 05:47:20.146,2016/08/18 10:47:27.722,0 days 19:29:45.695000000,2 days 05:00:07.576000000,3 days 00:29:53.271000000
309066,Application_177466388,A_Denied,2016/08/18 10:47:27.668,2016/08/18 10:47:27.668,2 days 05:00:07.522000000,0 days 00:00:00.000000000,2 days 05:00:07.522000000
309067,Application_177466388,O_Refused,2016/08/18 10:47:27.703,2016/08/18 10:47:27.703,0 days 00:00:00.035000000,0 days 00:00:00.000000000,0 days 00:00:00.035000000
309068,Application_177466388,O_Refused,2016/08/18 10:47:27.711,2016/08/18 10:47:27.711,0 days 00:00:00.008000000,0 days 00:00:00.000000000,0 days 00:00:00.008000000
313692,Application_781296598,W_Assess potential fraud,2016/08/10 05:44:38.234,2016/08/11 08:37:58.939,0 days 01:01:03.156000000,1 days 02:53:20.705000000,1 days 03:54:23.861000000
313693,Application_781296598,W_Validate application,2016/08/11 08:37:58.957,2016/08/11 08:37:58.957,1 days 02:53:20.723000000,0 days 00:00:00.000000000,1 days 02:53:20.723000000
313757,Application_1345825411,W_Assess potential fraud,2016/08/15 09:50:18.679,2016/08/18 10:31:38.145,4 days 05:44:41.117000000,3 days 00:41:19.466000000,7 days 06:26:00.583000000
313758,Application_1345825411,A_Denied,2016/08/18 10:31:38.085,2016/08/18 10:31:38.085,3 days 00:41:19.406000000,0 days 00:00:00.000000000,3 days 00:41:19.406000000
313759,Application_1345825411,O_Refused,2016/08/18 10:31:38.130,2016/08/18 10:31:38.130,0 days 00:00:00.045000000,0 days 00:00:00.000000000,0 days 00:00:00.045000000
315477,Application_1567394387,W_Assess potential fraud,2016/09/14 04:31:47.528,2016/09/19 08:47:53.706,4 days 22:58:51.892000000,5 days 04:16:06.178000000,10 days 03:14:58.070000000
315478,Application_1567394387,W_Validate application,2016/09/19 08:47:53.714,2016/09/19 08:47:53.714,5 days 04:16:06.186000000,0 days 00:00:00.000000000,5 days 04:16:06.186000000
316056,Application_522081554,W_Assess potential fraud,2016/08/17 04:31:15.231,2016/08/24 10:23:54.909,0 days 23:13:49.278000000,7 days 05:52:39.678000000,8 days 05:06:28.956000000
317485,Application_1069651565,W_Assess potential fraud,2016/08/17 05:28:15.360,2016/08/22 06:32:02.453,0 days 19:13:05.061000000,5 days 01:03:47.093000000,5 days 20:16:52.154000000
317486,Application_1069651565,W_Validate application,2016/08/22 06:32:02.460,2016/08/22 06:32:02.460,5 days 01:03:47.100000000,0 days 00:00:00.000000000,5 days 01:03:47.100000000
318595,Application_1417828983,W_Assess potential fraud,2016/08/17 05:26:30.893,2016/08/23 06:29:24.366,5 days 23:38:00.660000000,6 days 01:02:53.473000000,12 days 00:40:54.133000000
318596,Application_1417828983,W_Validate application,2016/08/23 06:29:24.389,2016/08/23 06:29:24.389,6 days 01:02:53.496000000,0 days 00:00:00.000000000,6 days 01:02:53.496000000
319120,Application_1728453877,W_Assess potential fraud,2016/08/12 10:48:35.265,2016/08/17 09:18:56.423,0 days 06:09:14.185000000,4 days 22:30:21.158000000,5 days 04:39:35.343000000
319121,Application_1728453877,W_Validate application,2016/08/17 09:18:56.448,2016/08/17 09:18:56.448,4 days 22:30:21.183000000,0 days 00:00:00.000000000,4 days 22:30:21.183000000
320300,Application_428827586,W_Assess potential fraud,2016/09/07 06:00:38.536,2016/09/15 05:47:05.118,0 days 01:19:14.796000000,7 days 23:46:26.582000000,8 days 01:05:41.378000000
320301,Application_428827586,W_Validate application,2016/09/15 05:47:05.126,2016/09/15 05:47:05.126,7 days 23:46:26.590000000,0 days 00:00:00.000000000,7 days 23:46:26.590000000
327258,Application_537810808,W_Assess potential fraud,2016/08/24 09:34:52.937,2016/08/30 03:51:29.852,0 days 03:53:06.767000000,5 days 18:16:36.915000000,5 days 22:09:43.682000000
327259,Application_537810808,W_Validate application,2016/08/30 03:51:29.864,2016/08/30 03:51:29.864,5 days 18:16:36.927000000,0 days 00:00:00.000000000,5 days 18:16:36.927000000
337156,Application_54298626,W_Assess potential fraud,2016/08/31 03:32:26.657,2016/10/07 04:28:57.355,5 days 20:39:24.009000000,37 days 00:56:30.698000000,42 days 21:35:54.707000000
337157,Application_54298626,A_Denied,2016/10/07 04:28:57.324,2016/10/07 04:28:57.324,37 days 00:56:30.667000000,0 days 00:00:00.000000000,37 days 00:56:30.667000000
337158,Application_54298626,O_Refused,2016/10/07 04:28:57.346,2016/10/07 04:28:57.346,0 days 00:00:00.022000000,0 days 00:00:00.000000000,0 days 00:00:00.022000000
338434,Application_1532284975,W_Assess potential fraud,2016/08/26 10:10:30.232,2016/08/30 08:16:52.395,1 days 05:02:05.015000000,3 days 22:06:22.163000000,5 days 03:08:27.178000000
338435,Application_1532284975,W_Validate application,2016/08/30 08:16:52.404,2016/08/30 08:16:52.404,3 days 22:06:22.172000000,0 days 00:00:00.000000000,3 days 22:06:22.172000000
342354,Application_1334427669,W_Assess potential fraud,2016/09/13 09:29:29.605,2016/09/13 11:04:08.514,4 days 01:11:24.248000000,0 days 01:34:38.909000000,4 days 02:46:03.157000000
342355,Application_1334427669,A_Denied,2016/09/13 11:04:08.482,2016/09/13 11:04:08.482,0 days 01:34:38.877000000,0 days 00:00:00.000000000,0 days 01:34:38.877000000
342356,Application_1334427669,O_Refused,2016/09/13 11:04:08.506,2016/09/13 11:04:08.506,0 days 00:00:00.024000000,0 days 00:00:00.000000000,0 days 00:00:00.024000000
344209,Application_430928640,W_Assess potential fraud,2016/09/06 08:37:36.450,2016/09/08 04:21:29.639,1 days 04:19:23.984000000,1 days 19:43:53.189000000,3 days 00:03:17.173000000
344210,Application_430928640,W_Validate application,2016/09/08 04:21:29.646,2016/09/08 04:21:29.646,1 days 19:43:53.196000000,0 days 00:00:00.000000000,1 days 19:43:53.196000000
348395,Application_704173434,W_Assess potential fraud,2016/09/06 08:45:57.740,2016/09/15 05:47:32.845,3 days 00:31:00.741000000,8 days 21:01:35.105000000,11 days 21:32:35.846000000
348396,Application_704173434,W_Validate application,2016/09/15 05:47:32.868,2016/09/15 05:47:32.868,8 days 21:01:35.128000000,0 days 00:00:00.000000000,8 days 21:01:35.128000000
348617,Application_1731458298,W_Assess potential fraud,2016/09/14 08:40:37.763,2016/09/14 10:37:43.979,0 days 21:26:46.732000000,0 days 01:57:06.216000000,0 days 23:23:52.948000000
348618,Application_1731458298,A_Denied,2016/09/14 10:37:43.948,2016/09/14 10:37:43.948,0 days 01:57:06.185000000,0 days 00:00:00.000000000,0 days 01:57:06.185000000
348619,Application_1731458298,O_Refused,2016/09/14 10:37:43.969,2016/09/14 10:37:43.969,0 days 00:00:00.021000000,0 days 00:00:00.000000000,0 days 00:00:00.021000000
349907,Application_1459650735,W_Assess potential fraud,2016/09/02 10:13:09.702,2016/09/05 11:02:50.147,1 days 04:45:45.869000000,3 days 00:49:40.445000000,4 days 05:35:26.314000000
349908,Application_1459650735,W_Validate application,2016/09/05 11:02:50.167,2016/09/05 11:02:50.167,3 days 00:49:40.465000000,0 days 00:00:00.000000000,3 days 00:49:40.465000000
350466,Application_952230284,W_Assess potential fraud,2016/09/08 04:03:35.945,2016/09/08 09:21:33.774,0 days 20:16:11.386000000,0 days 05:17:57.829000000,1 days 01:34:09.215000000
350467,Application_952230284,A_Denied,2016/09/08 09:21:33.711,2016/09/08 09:21:33.711,0 days 05:17:57.766000000,0 days 00:00:00.000000000,0 days 05:17:57.766000000
350468,Application_952230284,O_Refused,2016/09/08 09:21:33.761,2016/09/08 09:21:33.761,0 days 00:00:00.050000000,0 days 00:00:00.000000000,0 days 00:00:00.050000000
353478,Application_509114641,W_Assess potential fraud,2016/09/23 06:03:57.453,2016/09/26 10:53:57.860,0 days 20:42:29.756000000,3 days 04:50:00.407000000,4 days 01:32:30.163000000
353479,Application_509114641,W_Validate application,2016/09/26 10:53:57.870,2016/09/26 10:53:57.870,3 days 04:50:00.417000000,0 days 00:00:00.000000000,3 days 04:50:00.417000000
353512,Application_313929011,W_Assess potential fraud,2016/09/20 07:00:19.072,2016/09/29 05:39:45.087,6 days 03:37:35.322000000,8 days 22:39:26.015000000,15 days 02:17:01.337000000
353513,Application_313929011,A_Denied,2016/09/29 05:39:45.046,2016/09/29 05:39:45.046,8 days 22:39:25.974000000,0 days 00:00:00.000000000,8 days 22:39:25.974000000
353514,Application_313929011,O_Refused,2016/09/29 05:39:45.073,2016/09/29 05:39:45.073,0 days 00:00:00.027000000,0 days 00:00:00.000000000,0 days 00:00:00.027000000
353515,Application_313929011,O_Refused,2016/09/29 05:39:45.079,2016/09/29 05:39:45.079,0 days 00:00:00.006000000,0 days 00:00:00.000000000,0 days 00:00:00.006000000
357177,Application_1780521136,W_Assess potential fraud,2016/09/20 08:58:39.189,2016/10/06 05:31:04.296,5 days 01:22:50.296000000,15 days 20:32:25.107000000,20 days 21:55:15.403000000
357178,Application_1780521136,W_Validate application,2016/10/06 05:31:04.305,2016/10/06 05:31:04.305,15 days 20:32:25.116000000,0 days 00:00:00.000000000,15 days 20:32:25.116000000
358174,Application_1036210171,W_Assess potential fraud,2016/09/08 08:53:49.566,2016/09/08 09:01:43.382,1 days 23:10:15.841000000,0 days 00:07:53.816000000,1 days 23:18:09.657000000
358175,Application_1036210171,W_Validate application,2016/09/08 09:01:43.389,2016/09/08 09:01:43.389,0 days 00:07:53.823000000,0 days 00:00:00.000000000,0 days 00:07:53.823000000
362289,Application_1724183309,W_Assess potential fraud,2016/09/16 06:33:45.766,2016/09/20 11:22:09.834,1 days 23:18:34.539000000,4 days 04:48:24.068000000,6 days 04:06:58.607000000
362290,Application_1724183309,A_Denied,2016/09/20 11:22:09.792,2016/09/20 11:22:09.792,4 days 04:48:24.026000000,0 days 00:00:00.000000000,4 days 04:48:24.026000000
362291,Application_1724183309,O_Refused,2016/09/20 11:22:09.823,2016/09/20 11:22:09.823,0 days 00:00:00.031000000,0 days 00:00:00.000000000,0 days 00:00:00.031000000
363899,Application_328932760,W_Assess potential fraud,2016/09/15 04:39:24.093,2016/09/15 05:47:21.276,1 days 20:26:47.039000000,0 days 01:07:57.183000000,1 days 21:34:44.222000000
363900,Application_328932760,W_Validate application,2016/09/15 05:47:21.309,2016/09/15 05:47:21.309,0 days 01:07:57.216000000,0 days 00:00:00.000000000,0 days 01:07:57.216000000
365616,Application_1650220511,W_Assess potential fraud,2016/09/30 05:32:19.499,2016/10/03 06:22:15.107,2 days 18:59:17.624000000,3 days 00:49:55.608000000,5 days 19:49:13.232000000
366028,Application_893461700,W_Assess potential fraud,2016/09/28 11:00:13.150,2016/10/17 12:00:14.727,6 days 03:17:18.478000000,19 days 01:00:01.577000000,25 days 04:17:20.055000000
366029,Application_893461700,A_Denied,2016/10/17 12:00:14.694,2016/10/17 12:00:14.694,19 days 01:00:01.544000000,0 days 00:00:00.000000000,19 days 01:00:01.544000000
366030,Application_893461700,O_Refused,2016/10/17 12:00:14.719,2016/10/17 12:00:14.719,0 days 00:00:00.025000000,0 days 00:00:00.000000000,0 days 00:00:00.025000000
369694,Application_1164458783,W_Assess potential fraud,2016/09/19 11:45:56.905,2016/09/20 05:13:46.268,5 days 05:50:52.226000000,0 days 17:27:49.363000000,5 days 23:18:41.589000000
373778,Application_1722230762,W_Assess potential fraud,2016/09/16 06:15:14.022,2016/09/20 05:15:47.936,2 days 23:53:20.379000000,3 days 23:00:33.914000000,6 days 22:53:54.293000000
373779,Application_1722230762,A_Denied,2016/09/20 05:15:47.904,2016/09/20 05:15:47.904,3 days 23:00:33.882000000,0 days 00:00:00.000000000,3 days 23:00:33.882000000
373780,Application_1722230762,O_Refused,2016/09/20 05:15:47.927,2016/09/20 05:15:47.927,0 days 00:00:00.023000000,0 days 00:00:00.000000000,0 days 00:00:00.023000000
373818,Application_1075376537,W_Assess potential fraud,2016/09/22 09:12:14.500,2016/09/30 09:24:41.894,5 days 02:37:06.029000000,8 days 00:12:27.394000000,13 days 02:49:33.423000000
379465,Application_1446602689,W_Assess potential fraud,2016/10/06 05:12:42.452,2016/10/06 08:09:20.764,1 days 22:37:13.424000000,0 days 02:56:38.312000000,2 days 01:33:51.736000000
379466,Application_1446602689,W_Validate application,2016/10/06 08:09:20.772,2016/10/06 08:09:20.772,0 days 02:56:38.320000000,0 days 00:00:00.000000000,0 days 02:56:38.320000000
385089,Application_1789934601,W_Assess potential fraud,2016/11/07 10:15:14.580,2016/11/08 12:31:59.225,4 days 21:24:12.975000000,1 days 02:16:44.645000000,5 days 23:40:57.620000000
385090,Application_1789934601,A_Denied,2016/11/08 12:31:59.193,2016/11/08 12:31:59.193,1 days 02:16:44.613000000,0 days 00:00:00.000000000,1 days 02:16:44.613000000
385091,Application_1789934601,O_Refused,2016/11/08 12:31:59.217,2016/11/08 12:31:59.217,0 days 00:00:00.024000000,0 days 00:00:00.000000000,0 days 00:00:00.024000000
385675,Application_1406191417,W_Assess potential fraud,2016/09/23 07:59:05.619,2016/09/27 03:25:42.743,3 days 02:52:11.280000000,3 days 19:26:37.124000000,6 days 22:18:48.404000000
385676,Application_1406191417,W_Validate application,2016/09/27 03:25:42.752,2016/09/27 03:25:42.752,3 days 19:26:37.133000000,0 days 00:00:00.000000000,3 days 19:26:37.133000000
387196,Application_2047642467,W_Assess potential fraud,2016/09/23 11:37:22.855,2016/10/11 06:55:23.435,2 days 03:18:32.812000000,17 days 19:18:00.580000000,19 days 22:36:33.392000000
387197,Application_2047642467,A_Denied,2016/10/11 06:55:23.406,2016/10/11 06:55:23.406,17 days 19:18:00.551000000,0 days 00:00:00.000000000,17 days 19:18:00.551000000
387198,Application_2047642467,O_Refused,2016/10/11 06:55:23.427,2016/10/11 06:55:23.427,0 days 00:00:00.021000000,0 days 00:00:00.000000000,0 days 00:00:00.021000000
392636,Application_1804461781,W_Assess potential fraud,2016/10/03 05:09:09.033,2016/10/04 11:07:53.777,5 days 00:36:32.220000000,1 days 05:58:44.744000000,6 days 06:35:16.964000000
392637,Application_1804461781,A_Denied,2016/10/04 11:07:53.726,2016/10/04 11:07:53.726,1 days 05:58:44.693000000,0 days 00:00:00.000000000,1 days 05:58:44.693000000
392638,Application_1804461781,O_Refused,2016/10/04 11:07:53.756,2016/10/04 11:07:53.756,0 days 00:00:00.030000000,0 days 00:00:00.000000000,0 days 00:00:00.030000000
392639,Application_1804461781,O_Refused,2016/10/04 11:07:53.763,2016/10/04 11:07:53.763,0 days 00:00:00.007000000,0 days 00:00:00.000000000,0 days 00:00:00.007000000
392640,Application_1804461781,O_Refused,2016/10/04 11:07:53.769,2016/10/04 11:07:53.769,0 days 00:00:00.006000000,0 days 00:00:00.000000000,0 days 00:00:00.006000000
394018,Application_1020410553,W_Assess potential fraud,2016/10/06 05:44:46.263,2016/10/11 06:19:26.621,1 days 22:38:11.964000000,5 days 00:34:40.358000000,6 days 23:12:52.322000000
394019,Application_1020410553,A_Denied,2016/10/11 06:19:26.587,2016/10/11 06:19:26.587,5 days 00:34:40.324000000,0 days 00:00:00.000000000,5 days 00:34:40.324000000
394020,Application_1020410553,O_Refused,2016/10/11 06:19:26.613,2016/10/11 06:19:26.613,0 days 00:00:00.026000000,0 days 00:00:00.000000000,0 days 00:00:00.026000000
396155,Application_819824590,W_Assess potential fraud,2016/09/20 03:47:13.431,2016/09/20 05:15:17.997,0 days 16:53:52.000000000,0 days 01:28:04.566000000,0 days 18:21:56.566000000
396156,Application_819824590,W_Complete application,2016/09/20 05:15:18.004,2016/09/20 05:15:18.004,0 days 01:28:04.573000000,0 days 00:00:00.000000000,0 days 01:28:04.573000000
398528,Application_727155455,W_Assess potential fraud,2016/10/06 08:03:47.516,2016/10/06 11:22:58.586,0 days 01:17:08.331000000,0 days 03:19:11.070000000,0 days 04:36:19.401000000
398529,Application_727155455,W_Complete application,2016/10/06 11:22:58.593,2016/10/06 11:22:58.593,0 days 03:19:11.077000000,0 days 00:00:00.000000000,0 days 03:19:11.077000000
413877,Application_184883322,W_Assess potential fraud,2016/10/12 10:22:15.096,2016/10/21 10:32:59.217,0 days 00:25:20.226000000,9 days 00:10:44.121000000,9 days 00:36:04.347000000
413878,Application_184883322,A_Denied,2016/10/21 10:32:59.176,2016/10/21 10:32:59.176,9 days 00:10:44.080000000,0 days 00:00:00.000000000,9 days 00:10:44.080000000
413879,Application_184883322,O_Refused,2016/10/21 10:32:59.203,2016/10/21 10:32:59.203,0 days 00:00:00.027000000,0 days 00:00:00.000000000,0 days 00:00:00.027000000
417021,Application_938318297,W_Assess potential fraud,2016/10/18 04:32:11.514,2016/11/04 11:35:59.085,3 days 21:38:52.689000000,17 days 07:03:47.571000000,21 days 04:42:40.260000000
417022,Application_938318297,A_Denied,2016/11/04 11:35:59.043,2016/11/04 11:35:59.043,17 days 07:03:47.529000000,0 days 00:00:00.000000000,17 days 07:03:47.529000000
417023,Application_938318297,O_Refused,2016/11/04 11:35:59.070,2016/11/04 11:35:59.070,0 days 00:00:00.027000000,0 days 00:00:00.000000000,0 days 00:00:00.027000000
417607,Application_1220541878,W_Assess potential fraud,2016/10/19 11:03:04.051,2016/11/17 07:41:45.536,0 days 01:13:24.324000000,28 days 20:38:41.485000000,28 days 21:52:05.809000000
417608,Application_1220541878,A_Denied,2016/11/17 07:41:45.506,2016/11/17 07:41:45.506,28 days 20:38:41.455000000,0 days 00:00:00.000000000,28 days 20:38:41.455000000
417609,Application_1220541878,O_Refused,2016/11/17 07:41:45.528,2016/11/17 07:41:45.528,0 days 00:00:00.022000000,0 days 00:00:00.000000000,0 days 00:00:00.022000000
419840,Application_1756863996,W_Assess potential fraud,2016/10/21 08:57:04.853,2016/10/31 05:55:40.909,0 days 00:29:32.376000000,9 days 20:58:36.056000000,9 days 21:28:08.432000000
419841,Application_1756863996,W_Validate application,2016/10/31 05:55:40.916,2016/10/31 05:55:40.916,9 days 20:58:36.063000000,0 days 00:00:00.000000000,9 days 20:58:36.063000000
420644,Application_961756784,W_Assess potential fraud,2016/10/14 10:45:16.304,2016/10/17 11:47:20.182,1 days 01:10:25.919000000,3 days 01:02:03.878000000,4 days 02:12:29.797000000
420645,Application_961756784,W_Validate application,2016/10/17 11:47:20.200,2016/10/17 11:47:20.200,3 days 01:02:03.896000000,0 days 00:00:00.000000000,3 days 01:02:03.896000000
422182,Application_165594970,W_Assess potential fraud,2016/10/04 06:41:26.523,2016/10/04 06:45:12.890,0 days 00:09:21.710000000,0 days 00:03:46.367000000,0 days 00:13:08.077000000
422437,Application_438711887,W_Assess potential fraud,2016/10/18 13:43:01.481,2016/10/18 13:45:28.901,0 days 00:40:21.989000000,0 days 00:02:27.420000000,0 days 00:42:49.409000000
422438,Application_438711887,W_Assess potential fraud,2016/10/18 13:45:28.909,2016/10/20 04:50:21.052,0 days 00:02:27.428000000,1 days 15:04:52.143000000,1 days 15:07:19.571000000
422439,Application_438711887,W_Validate application,2016/10/20 04:50:21.060,2016/10/20 04:50:21.060,1 days 15:04:52.151000000,0 days 00:00:00.000000000,1 days 15:04:52.151000000
423949,Application_1758628504,W_Assess potential fraud,2016/11/08 10:15:21.015,2016/11/10 07:57:11.327,4 days 21:34:55.898000000,1 days 21:41:50.312000000,6 days 19:16:46.210000000
423950,Application_1758628504,W_Validate application,2016/11/10 07:57:11.334,2016/11/10 07:57:11.334,1 days 21:41:50.319000000,0 days 00:00:00.000000000,1 days 21:41:50.319000000
424201,Application_461173805,W_Assess potential fraud,2016/11/18 11:18:40.424,2016/12/05 06:17:17.203,3 days 02:27:21.484000000,16 days 18:58:36.779000000,19 days 21:25:58.263000000
424202,Application_461173805,W_Validate application,2016/12/05 06:17:17.236,2016/12/05 06:17:17.236,16 days 18:58:36.812000000,0 days 00:00:00.000000000,16 days 18:58:36.812000000
428033,Application_1141800606,W_Assess potential fraud,2016/10/19 12:48:10.983,2016/11/08 12:13:02.058,0 days 03:31:32.242000000,19 days 23:24:51.075000000,20 days 02:56:23.317000000
428034,Application_1141800606,A_Denied,2016/11/08 12:13:02.023,2016/11/08 12:13:02.023,19 days 23:24:51.040000000,0 days 00:00:00.000000000,19 days 23:24:51.040000000
428035,Application_1141800606,O_Refused,2016/11/08 12:13:02.049,2016/11/08 12:13:02.049,0 days 00:00:00.026000000,0 days 00:00:00.000000000,0 days 00:00:00.026000000
428783,Application_1796529138,W_Assess potential fraud,2016/10/19 12:49:49.351,2016/10/31 13:22:16.590,0 days 05:57:08.597000000,12 days 00:32:27.239000000,12 days 06:29:35.836000000
430732,Application_927026866,W_Assess potential fraud,2016/10/19 05:32:56.742,2016/10/20 04:55:31.010,0 days 19:10:19.181000000,0 days 23:22:34.268000000,1 days 18:32:53.449000000
430733,Application_927026866,W_Validate application,2016/10/20 04:55:31.017,2016/10/20 04:55:31.017,0 days 23:22:34.275000000,0 days 00:00:00.000000000,0 days 23:22:34.275000000
444081,Application_1452854959,W_Assess potential fraud,2016/10/26 07:56:08.538,2016/10/31 06:27:45.471,0 days 19:49:05.244000000,4 days 22:31:36.933000000,5 days 18:20:42.177000000
444082,Application_1452854959,W_Validate application,2016/10/31 06:27:45.482,2016/10/31 06:27:45.482,4 days 22:31:36.944000000,0 days 00:00:00.000000000,4 days 22:31:36.944000000
451761,Application_380770908,W_Assess potential fraud,2016/10/31 12:17:31.693,2016/11/09 06:23:01.660,3 days 02:16:53.132000000,8 days 18:05:29.967000000,11 days 20:22:23.099000000
451762,Application_380770908,W_Validate application,2016/11/09 06:23:01.667,2016/11/09 06:23:01.667,8 days 18:05:29.974000000,0 days 00:00:00.000000000,8 days 18:05:29.974000000
453337,Application_2029271670,W_Assess potential fraud,2016/11/15 08:44:37.614,2016/11/24 07:22:37.791,4 days 22:09:14.845000000,8 days 22:38:00.177000000,13 days 20:47:15.022000000
453338,Application_2029271670,A_Denied,2016/11/24 07:22:37.762,2016/11/24 07:22:37.762,8 days 22:38:00.148000000,0 days 00:00:00.000000000,8 days 22:38:00.148000000
453339,Application_2029271670,O_Refused,2016/11/24 07:22:37.783,2016/11/24 07:22:37.783,0 days 00:00:00.021000000,0 days 00:00:00.000000000,0 days 00:00:00.021000000
454934,Application_637748400,W_Assess potential fraud,2016/11/10 13:07:55.554,2016/11/14 06:42:41.813,1 days 21:07:01.038000000,3 days 17:34:46.259000000,5 days 14:41:47.297000000
454935,Application_637748400,W_Validate application,2016/11/14 06:42:41.821,2016/11/14 06:42:41.821,3 days 17:34:46.267000000,0 days 00:00:00.000000000,3 days 17:34:46.267000000
455967,Application_815196626,W_Assess potential fraud,2016/11/01 07:08:15.449,2016/11/02 07:15:02.334,3 days 20:09:10.331000000,1 days 00:06:46.885000000,4 days 20:15:57.216000000
455968,Application_815196626,W_Validate application,2016/11/02 07:15:02.346,2016/11/02 07:15:02.346,1 days 00:06:46.897000000,0 days 00:00:00.000000000,1 days 00:06:46.897000000
458522,Application_391099640,W_Assess potential fraud,2016/11/16 06:01:43.834,2016/11/17 09:41:00.462,21 days 18:58:16.252000000,1 days 03:39:16.628000000,22 days 22:37:32.880000000
458523,Application_391099640,A_Denied,2016/11/17 09:41:00.435,2016/11/17 09:41:00.435,1 days 03:39:16.601000000,0 days 00:00:00.000000000,1 days 03:39:16.601000000
458524,Application_391099640,O_Refused,2016/11/17 09:41:00.454,2016/11/17 09:41:00.454,0 days 00:00:00.019000000,0 days 00:00:00.000000000,0 days 00:00:00.019000000
463580,Application_113474586,W_Assess potential fraud,2016/11/10 13:25:24.599,2016/11/14 06:58:34.153,3 days 01:02:29.595000000,3 days 17:33:09.554000000,6 days 18:35:39.149000000
463581,Application_113474586,W_Validate application,2016/11/14 06:58:34.160,2016/11/14 06:58:34.160,3 days 17:33:09.561000000,0 days 00:00:00.000000000,3 days 17:33:09.561000000
463974,Application_742173495,W_Assess potential fraud,2016/11/07 09:19:07.722,2016/11/15 12:15:55.896,2 days 00:27:52.884000000,8 days 02:56:48.174000000,10 days 03:24:41.058000000
463975,Application_742173495,A_Denied,2016/11/15 12:15:55.864,2016/11/15 12:15:55.864,8 days 02:56:48.142000000,0 days 00:00:00.000000000,8 days 02:56:48.142000000
463976,Application_742173495,O_Refused,2016/11/15 12:15:55.887,2016/11/15 12:15:55.887,0 days 00:00:00.023000000,0 days 00:00:00.000000000,0 days 00:00:00.023000000
466521,Application_614334599,W_Assess potential fraud,2016/11/08 11:10:21.314,2016/11/09 06:56:32.631,0 days 21:49:21.119000000,0 days 19:46:11.317000000,1 days 17:35:32.436000000
466522,Application_614334599,W_Validate application,2016/11/09 06:56:32.653,2016/11/09 06:56:32.653,0 days 19:46:11.339000000,0 days 00:00:00.000000000,0 days 19:46:11.339000000
466710,Application_1728000220,W_Assess potential fraud,2016/11/25 10:39:56.392,2016/11/29 06:59:48.228,0 days 00:04:05.284000000,3 days 20:19:51.836000000,3 days 20:23:57.120000000
466711,Application_1728000220,W_Validate application,2016/11/29 06:59:48.236,2016/11/29 06:59:48.236,3 days 20:19:51.844000000,0 days 00:00:00.000000000,3 days 20:19:51.844000000
468820,Application_519214643,W_Assess potential fraud,2016/11/15 07:45:53.729,2016/11/15 12:14:58.650,0 days 16:30:34.675000000,0 days 04:29:04.921000000,0 days 20:59:39.596000000
468821,Application_519214643,W_Validate application,2016/11/15 12:14:58.657,2016/11/15 12:14:58.657,0 days 04:29:04.928000000,0 days 00:00:00.000000000,0 days 04:29:04.928000000
470098,Application_483126363,W_Assess potential fraud,2016/12/02 08:08:12.600,2016/12/13 11:23:57.617,1 days 21:36:51.008000000,11 days 03:15:45.017000000,13 days 00:52:36.025000000
470099,Application_483126363,W_Assess potential fraud,2016/12/08 10:59:13.182,2016/12/08 10:59:13.182,6 days 02:51:00.582000000,0 days 00:00:00.000000000,6 days 02:51:00.582000000
471249,Application_1153365113,W_Assess potential fraud,2016/11/21 10:46:30.345,2016/11/24 07:24:46.874,4 days 22:23:21.425000000,2 days 20:38:16.529000000,7 days 19:01:37.954000000
476465,Application_1803270801,W_Assess potential fraud,2016/11/08 11:20:09.730,2016/11/08 11:20:19.788,3 days 21:28:24.916000000,0 days 00:00:10.058000000,3 days 21:28:34.974000000
476466,Application_1803270801,A_Denied,2016/11/08 11:20:19.761,2016/11/08 11:20:19.761,0 days 00:00:10.031000000,0 days 00:00:00.000000000,0 days 00:00:10.031000000
476467,Application_1803270801,O_Refused,2016/11/08 11:20:19.780,2016/11/08 11:20:19.780,0 days 00:00:00.019000000,0 days 00:00:00.000000000,0 days 00:00:00.019000000
477882,Application_1956370444,W_Assess potential fraud,2016/11/29 07:45:16.484,2016/12/02 11:51:51.527,5 days 20:44:21.965000000,3 days 04:06:35.043000000,9 days 00:50:57.008000000
477883,Application_1956370444,A_Denied,2016/12/02 11:51:51.423,2016/12/02 11:51:51.423,3 days 04:06:34.939000000,0 days 00:00:00.000000000,3 days 04:06:34.939000000
477884,Application_1956370444,O_Refused,2016/12/02 11:51:51.488,2016/12/02 11:51:51.488,0 days 00:00:00.065000000,0 days 00:00:00.000000000,0 days 00:00:00.065000000
477885,Application_1956370444,O_Refused,2016/12/02 11:51:51.510,2016/12/02 11:51:51.510,0 days 00:00:00.022000000,0 days 00:00:00.000000000,0 days 00:00:00.022000000
480044,Application_1605786633,W_Assess potential fraud,2016/11/16 06:24:34.176,2016/11/28 13:06:37.519,0 days 15:04:16.457000000,12 days 06:42:03.343000000,12 days 21:46:19.800000000
480045,Application_1605786633,A_Denied,2016/11/28 13:06:37.489,2016/11/28 13:06:37.489,12 days 06:42:03.313000000,0 days 00:00:00.000000000,12 days 06:42:03.313000000
480046,Application_1605786633,O_Refused,2016/11/28 13:06:37.511,2016/11/28 13:06:37.511,0 days 00:00:00.022000000,0 days 00:00:00.000000000,0 days 00:00:00.022000000
480622,Application_1020830584,W_Assess potential fraud,2016/12/19 08:43:42.358,2016/12/20 11:53:17.852,1 days 23:00:03.313000000,1 days 03:09:35.494000000,3 days 02:09:38.807000000
480623,Application_1020830584,A_Denied,2016/12/20 11:53:17.811,2016/12/20 11:53:17.811,1 days 03:09:35.453000000,0 days 00:00:00.000000000,1 days 03:09:35.453000000
480624,Application_1020830584,O_Refused,2016/12/20 11:53:17.837,2016/12/20 11:53:17.837,0 days 00:00:00.026000000,0 days 00:00:00.000000000,0 days 00:00:00.026000000
480625,Application_1020830584,O_Refused,2016/12/20 11:53:17.843,2016/12/20 11:53:17.843,0 days 00:00:00.006000000,0 days 00:00:00.000000000,0 days 00:00:00.006000000
480720,Application_630885216,W_Assess potential fraud,2016/11/29 05:53:41.255,2016/11/29 12:41:18.119,0 days 12:07:51.443000000,0 days 06:47:36.864000000,0 days 18:55:28.307000000
480721,Application_630885216,W_Validate application,2016/11/29 12:41:18.126,2016/11/29 12:41:18.126,0 days 06:47:36.871000000,0 days 00:00:00.000000000,0 days 06:47:36.871000000
481667,Application_249437501,W_Assess potential fraud,2016/11/09 07:09:10.237,2016/12/08 06:49:27.645,1 days 19:24:04.367000000,28 days 23:40:17.408000000,30 days 19:04:21.775000000
481668,Application_249437501,A_Denied,2016/12/08 06:49:27.617,2016/12/08 06:49:27.617,28 days 23:40:17.380000000,0 days 00:00:00.000000000,28 days 23:40:17.380000000
481669,Application_249437501,O_Refused,2016/12/08 06:49:27.637,2016/12/08 06:49:27.637,0 days 00:00:00.020000000,0 days 00:00:00.000000000,0 days 00:00:00.020000000
482287,Application_77518101,W_Assess potential fraud,2016/11/15 07:14:00.144,2016/11/22 07:23:43.504,5 days 00:10:23.726000000,7 days 00:09:43.360000000,12 days 00:20:07.086000000
482653,Application_2044328508,W_Assess potential fraud,2016/11/23 05:59:01.814,2016/11/24 11:00:44.877,0 days 15:02:54.065000000,1 days 05:01:43.063000000,1 days 20:04:37.128000000
482654,Application_2044328508,W_Validate application,2016/11/24 11:00:44.884,2016/11/24 11:00:44.884,1 days 05:01:43.070000000,0 days 00:00:00.000000000,1 days 05:01:43.070000000
483641,Application_506291317,W_Assess potential fraud,2016/11/14 07:33:40.676,2016/11/14 12:32:54.106,2 days 18:26:15.794000000,0 days 04:59:13.430000000,2 days 23:25:29.224000000
483642,Application_506291317,W_Validate application,2016/11/14 12:32:54.116,2016/11/14 12:32:54.116,0 days 04:59:13.440000000,0 days 00:00:00.000000000,0 days 04:59:13.440000000
484124,Application_1221422293,W_Assess potential fraud,2016/11/16 09:25:20.777,2016/12/08 11:39:37.465,6 days 19:47:33.640000000,22 days 02:14:16.688000000,28 days 22:01:50.328000000
484125,Application_1221422293,A_Denied,2016/12/08 11:39:37.428,2016/12/08 11:39:37.428,22 days 02:14:16.651000000,0 days 00:00:00.000000000,22 days 02:14:16.651000000
484126,Application_1221422293,O_Refused,2016/12/08 11:39:37.452,2016/12/08 11:39:37.452,0 days 00:00:00.024000000,0 days 00:00:00.000000000,0 days 00:00:00.024000000
485946,Application_1175493423,W_Assess potential fraud,2016/12/06 11:03:40.848,2016/12/20 05:48:59.886,1 days 03:21:58.235000000,13 days 18:45:19.038000000,14 days 22:07:17.273000000
485947,Application_1175493423,W_Validate application,2016/12/20 05:48:59.894,2016/12/20 05:48:59.894,13 days 18:45:19.046000000,0 days 00:00:00.000000000,13 days 18:45:19.046000000
486180,Application_1429725995,W_Assess potential fraud,2016/11/22 08:56:26.575,2016/11/24 07:25:38.971,4 days 18:06:25.318000000,1 days 22:29:12.396000000,6 days 16:35:37.714000000
486181,Application_1429725995,A_Denied,2016/11/24 07:25:38.932,2016/11/24 07:25:38.932,1 days 22:29:12.357000000,0 days 00:00:00.000000000,1 days 22:29:12.357000000
486182,Application_1429725995,O_Refused,2016/11/24 07:25:38.963,2016/11/24 07:25:38.963,0 days 00:00:00.031000000,0 days 00:00:00.000000000,0 days 00:00:00.031000000
487314,Application_1405826636,W_Assess potential fraud,2016/11/22 04:34:53.587,2016/11/22 06:17:07.392,0 days 14:32:19.258000000,0 days 01:42:13.805000000,0 days 16:14:33.063000000
487315,Application_1405826636,W_Validate application,2016/11/22 06:17:07.404,2016/11/22 06:17:07.404,0 days 01:42:13.817000000,0 days 00:00:00.000000000,0 days 01:42:13.817000000
487482,Application_1894562710,W_Assess potential fraud,2016/11/25 11:01:15.251,2016/11/29 12:41:38.397,2 days 00:52:13.690000000,4 days 01:40:23.146000000,6 days 02:32:36.836000000
487483,Application_1894562710,A_Denied,2016/11/29 12:41:38.367,2016/11/29 12:41:38.367,4 days 01:40:23.116000000,0 days 00:00:00.000000000,4 days 01:40:23.116000000
487484,Application_1894562710,O_Refused,2016/11/29 12:41:38.389,2016/11/29 12:41:38.389,0 days 00:00:00.022000000,0 days 00:00:00.000000000,0 days 00:00:00.022000000
489764,Application_1612817160,W_Assess potential fraud,2016/11/24 10:45:38.685,2016/12/07 07:38:08.448,2 days 22:45:28.414000000,12 days 20:52:29.763000000,15 days 19:37:58.177000000
489765,Application_1612817160,A_Denied,2016/12/07 07:38:08.419,2016/12/07 07:38:08.419,12 days 20:52:29.734000000,0 days 00:00:00.000000000,12 days 20:52:29.734000000
489766,Application_1612817160,O_Refused,2016/12/07 07:38:08.440,2016/12/07 07:38:08.440,0 days 00:00:00.021000000,0 days 00:00:00.000000000,0 days 00:00:00.021000000
496733,Application_287618269,W_Assess potential fraud,2016/12/01 08:10:56.084,2016/12/01 08:12:01.423,0 days 16:51:53.582000000,0 days 00:01:05.339000000,0 days 16:52:58.921000000
496734,Application_287618269,W_Assess potential fraud,2016/12/01 08:12:01.429,2016/12/12 12:29:46.122,0 days 00:01:05.345000000,11 days 04:17:44.693000000,11 days 04:18:50.038000000
496735,Application_287618269,A_Denied,2016/12/12 12:29:46.035,2016/12/12 12:29:46.035,11 days 04:17:44.606000000,0 days 00:00:00.000000000,11 days 04:17:44.606000000
496736,Application_287618269,O_Refused,2016/12/12 12:29:46.106,2016/12/12 12:29:46.106,0 days 00:00:00.071000000,0 days 00:00:00.000000000,0 days 00:00:00.071000000
501318,Application_97035604,W_Assess potential fraud,2016/12/02 07:48:48.393,2016/12/05 11:28:42.807,0 days 21:34:08.004000000,3 days 03:39:54.414000000,4 days 01:14:02.418000000
501319,Application_97035604,W_Validate application,2016/12/05 11:28:42.816,2016/12/05 11:28:42.816,3 days 03:39:54.423000000,0 days 00:00:00.000000000,3 days 03:39:54.423000000
506263,Application_1578640551,W_Assess potential fraud,2016/12/06 07:15:55.710,2016/12/08 08:59:50.633,0 days 14:11:17.488000000,2 days 01:43:54.923000000,2 days 15:55:12.411000000
506264,Application_1578640551,W_Validate application,2016/12/08 08:59:50.645,2016/12/08 08:59:50.645,2 days 01:43:54.935000000,0 days 00:00:00.000000000,2 days 01:43:54.935000000
506687,Application_1999120078,W_Assess potential fraud,2016/12/09 06:42:01.879,2016/12/13 11:34:02.987,0 days 01:10:14.015000000,4 days 04:52:01.108000000,4 days 06:02:15.123000000
506688,Application_1999120078,A_Denied,2016/12/13 11:34:02.955,2016/12/13 11:34:02.955,4 days 04:52:01.076000000,0 days 00:00:00.000000000,4 days 04:52:01.076000000
506689,Application_1999120078,O_Refused,2016/12/13 11:34:02.978,2016/12/13 11:34:02.978,0 days 00:00:00.023000000,0 days 00:00:00.000000000,0 days 00:00:00.023000000
508277,Application_1443913959,W_Assess potential fraud,2016/12/05 11:10:05.978,2016/12/06 10:32:30.523,0 days 02:32:41.361000000,0 days 23:22:24.545000000,1 days 01:55:05.906000000
508278,Application_1443913959,W_Validate application,2016/12/06 10:32:30.531,2016/12/06 10:32:30.531,0 days 23:22:24.553000000,0 days 00:00:00.000000000,0 days 23:22:24.553000000
508479,Application_107556729,W_Assess potential fraud,2016/12/14 10:39:09.680,2016/12/14 11:41:19.229,5 days 22:25:00.287000000,0 days 01:02:09.549000000,5 days 23:27:09.836000000
508480,Application_107556729,W_Call after offers,2016/12/14 11:41:19.240,2016/12/14 11:41:19.240,0 days 01:02:09.560000000,0 days 00:00:00.000000000,0 days 01:02:09.560000000
508917,Application_635829958,W_Assess potential fraud,2016/12/08 06:43:27.969,2016/12/08 06:46:34.952,0 days 14:22:53.482000000,0 days 00:03:06.983000000,0 days 14:26:00.465000000
508918,Application_635829958,W_Validate application,2016/12/08 06:46:34.959,2016/12/08 06:46:34.959,0 days 00:03:06.990000000,0 days 00:00:00.000000000,0 days 00:03:06.990000000
510826,Application_127639994,W_Assess potential fraud,2016/12/07 07:53:34.227,2016/12/07 09:07:58.450,10 days 21:54:20.881000000,0 days 01:14:24.223000000,10 days 23:08:45.104000000
510827,Application_127639994,A_Denied,2016/12/07 09:07:58.387,2016/12/07 09:07:58.387,0 days 01:14:24.160000000,0 days 00:00:00.000000000,0 days 01:14:24.160000000
510828,Application_127639994,O_Refused,2016/12/07 09:07:58.442,2016/12/07 09:07:58.442,0 days 00:00:00.055000000,0 days 00:00:00.000000000,0 days 00:00:00.055000000
511042,Application_217025274,W_Assess potential fraud,2016/12/09 06:14:25.645,2016/12/12 10:32:46.232,0 days 18:07:44.211000000,3 days 04:18:20.587000000,3 days 22:26:04.798000000
511043,Application_217025274,W_Validate application,2016/12/12 10:32:46.238,2016/12/12 10:32:46.238,3 days 04:18:20.593000000,0 days 00:00:00.000000000,3 days 04:18:20.593000000
511404,Application_809842364,W_Assess potential fraud,2016/12/15 06:44:06.630,2016/12/15 11:30:03.354,0 days 21:44:08.805000000,0 days 04:45:56.724000000,1 days 02:30:05.529000000
511405,Application_809842364,W_Validate application,2016/12/15 11:30:03.362,2016/12/15 11:30:03.362,0 days 04:45:56.732000000,0 days 00:00:00.000000000,0 days 04:45:56.732000000
511839,Application_1034800486,W_Assess potential fraud,2016/12/22 13:54:17.359,2017/01/12 10:55:31.565,0 days 01:14:41.827000000,20 days 21:01:14.206000000,20 days 22:15:56.033000000
511840,Application_1034800486,A_Denied,2017/01/12 10:55:31.538,2017/01/12 10:55:31.538,20 days 21:01:14.179000000,0 days 00:00:00.000000000,20 days 21:01:14.179000000
511841,Application_1034800486,O_Refused,2017/01/12 10:55:31.557,2017/01/12 10:55:31.557,0 days 00:00:00.019000000,0 days 00:00:00.000000000,0 days 00:00:00.019000000
520511,Application_1114361455,W_Assess potential fraud,2016/12/01 16:42:30.389,2016/12/02 07:15:56.833,0 days 00:06:45.391000000,0 days 14:33:26.444000000,0 days 14:40:11.835000000
520512,Application_1114361455,W_Complete application,2016/12/02 07:15:56.842,2016/12/02 07:15:56.842,0 days 14:33:26.453000000,0 days 00:00:00.000000000,0 days 14:33:26.453000000
520522,Application_1114361455,W_Assess potential fraud,2016/12/15 05:50:54.170,2016/12/15 05:58:01.236,1 days 00:18:00.081000000,0 days 00:07:07.066000000,1 days 00:25:07.147000000
520523,Application_1114361455,W_Validate application,2016/12/15 05:58:01.243,2016/12/15 05:58:01.243,0 days 00:07:07.073000000,0 days 00:00:00.000000000,0 days 00:07:07.073000000
521260,Application_2141808398,W_Assess potential fraud,2016/12/13 08:07:16.202,2016/12/23 07:04:00.459,0 days 00:48:21.471000000,9 days 22:56:44.257000000,9 days 23:45:05.728000000
521261,Application_2141808398,A_Denied,2016/12/23 07:04:00.430,2016/12/23 07:04:00.430,9 days 22:56:44.228000000,0 days 00:00:00.000000000,9 days 22:56:44.228000000
521262,Application_2141808398,O_Refused,2016/12/23 07:04:00.451,2016/12/23 07:04:00.451,0 days 00:00:00.021000000,0 days 00:00:00.000000000,0 days 00:00:00.021000000
523528,Application_1361162937,W_Assess potential fraud,2016/12/13 07:55:34.203,2016/12/13 12:05:53.689,0 days 00:44:13.316000000,0 days 04:10:19.486000000,0 days 04:54:32.802000000
523529,Application_1361162937,W_Validate application,2016/12/13 12:05:53.696,2016/12/13 12:05:53.696,0 days 04:10:19.493000000,0 days 00:00:00.000000000,0 days 04:10:19.493000000
525434,Application_969888320,W_Assess potential fraud,2016/12/19 06:13:55.939,2016/12/20 07:46:49.573,12 days 19:56:46.835000000,1 days 01:32:53.634000000,13 days 21:29:40.469000000
525435,Application_969888320,A_Denied,2016/12/20 07:46:49.509,2016/12/20 07:46:49.509,1 days 01:32:53.570000000,0 days 00:00:00.000000000,1 days 01:32:53.570000000
525436,Application_969888320,O_Refused,2016/12/20 07:46:49.536,2016/12/20 07:46:49.536,0 days 00:00:00.027000000,0 days 00:00:00.000000000,0 days 00:00:00.027000000
527347,Application_159963009,W_Assess potential fraud,2016/12/13 10:56:52.471,2016/12/13 13:11:47.503,0 days 04:52:36.112000000,0 days 02:14:55.032000000,0 days 07:07:31.144000000
527348,Application_159963009,A_Denied,2016/12/13 13:11:47.471,2016/12/13 13:11:47.471,0 days 02:14:55.000000000,0 days 00:00:00.000000000,0 days 02:14:55.000000000
527349,Application_159963009,O_Refused,2016/12/13 13:11:47.495,2016/12/13 13:11:47.495,0 days 00:00:00.024000000,0 days 00:00:00.000000000,0 days 00:00:00.024000000
528279,Application_435221277,W_Assess potential fraud,2016/12/30 09:06:54.575,2017/01/02 11:15:45.365,0 days 02:31:32.668000000,3 days 02:08:50.790000000,3 days 04:40:23.458000000
528280,Application_435221277,A_Denied,2017/01/02 11:15:45.327,2017/01/02 11:15:45.327,3 days 02:08:50.752000000,0 days 00:00:00.000000000,3 days 02:08:50.752000000
528281,Application_435221277,O_Refused,2017/01/02 11:15:45.353,2017/01/02 11:15:45.353,0 days 00:00:00.026000000,0 days 00:00:00.000000000,0 days 00:00:00.026000000
530227,Application_1128945225,W_Assess potential fraud,2016/12/08 10:21:55.241,2016/12/08 10:22:03.383,0 days 01:52:50.498000000,0 days 00:00:08.142000000,0 days 01:52:58.640000000
530228,Application_1128945225,W_Complete application,2016/12/08 10:22:03.389,2016/12/08 10:22:03.389,0 days 00:00:08.148000000,0 days 00:00:00.000000000,0 days 00:00:08.148000000
531424,Application_983073417,W_Assess potential fraud,2016/12/21 15:05:34.955,2016/12/22 06:38:54.821,0 days 07:04:56.733000000,0 days 15:33:19.866000000,0 days 22:38:16.599000000
531425,Application_983073417,W_Validate application,2016/12/22 06:38:54.828,2016/12/22 06:38:54.828,0 days 15:33:19.873000000,0 days 00:00:00.000000000,0 days 15:33:19.873000000
534178,Application_1031666995,W_Assess potential fraud,2016/12/21 09:26:01.480,2016/12/28 11:21:44.431,0 days 01:19:52.918000000,7 days 01:55:42.951000000,7 days 03:15:35.869000000
534179,Application_1031666995,W_Validate application,2016/12/28 11:21:44.437,2016/12/28 11:21:44.437,7 days 01:55:42.957000000,0 days 00:00:00.000000000,7 days 01:55:42.957000000
534646,Application_988854237,W_Assess potential fraud,2017/01/12 11:35:58.518,2017/01/17 11:23:12.224,24 days 00:39:11.844000000,4 days 23:47:13.706000000,29 days 00:26:25.550000000
534647,Application_988854237,A_Denied,2017/01/17 11:23:12.197,2017/01/17 11:23:12.197,4 days 23:47:13.679000000,0 days 00:00:00.000000000,4 days 23:47:13.679000000
534648,Application_988854237,O_Refused,2017/01/17 11:23:12.216,2017/01/17 11:23:12.216,0 days 00:00:00.019000000,0 days 00:00:00.000000000,0 days 00:00:00.019000000
538552,Application_679723515,W_Assess potential fraud,2016/12/22 07:17:26.575,2016/12/22 07:17:59.532,0 days 18:31:14.601000000,0 days 00:00:32.957000000,0 days 18:31:47.558000000
539142,Application_1949935692,W_Assess potential fraud,2016/12/21 07:38:13.170,2016/12/21 07:38:38.564,4 days 19:04:08.069000000,0 days 00:00:25.394000000,4 days 19:04:33.463000000
539143,Application_1949935692,W_Call after offers,2016/12/21 07:38:38.575,2016/12/21 07:38:38.575,0 days 00:00:25.405000000,0 days 00:00:00.000000000,0 days 00:00:25.405000000
539888,Application_1289132611,W_Assess potential fraud,2017/01/06 06:01:23.641,2017/01/06 08:57:01.981,0 days 22:32:08.638000000,0 days 02:55:38.340000000,1 days 01:27:46.978000000
539889,Application_1289132611,W_Validate application,2017/01/06 08:57:01.988,2017/01/06 08:57:01.988,0 days 02:55:38.347000000,0 days 00:00:00.000000000,0 days 02:55:38.347000000
540577,Application_43229443,W_Assess potential fraud,2017/01/09 13:47:05.149,2017/01/10 08:08:39.673,0 days 04:49:19.681000000,0 days 18:21:34.524000000,0 days 23:10:54.205000000
540578,Application_43229443,W_Validate application,2017/01/10 08:08:39.687,2017/01/10 08:08:39.687,0 days 18:21:34.538000000,0 days 00:00:00.000000000,0 days 18:21:34.538000000
544241,Application_356707934,W_Assess potential fraud,2016/12/29 10:44:55.049,2017/01/10 12:00:31.707,0 days 05:05:23.055000000,12 days 01:15:36.658000000,12 days 06:20:59.713000000
544242,Application_356707934,A_Denied,2017/01/10 12:00:31.658,2017/01/10 12:00:31.658,12 days 01:15:36.609000000,0 days 00:00:00.000000000,12 days 01:15:36.609000000
544243,Application_356707934,O_Refused,2017/01/10 12:00:31.689,2017/01/10 12:00:31.689,0 days 00:00:00.031000000,0 days 00:00:00.000000000,0 days 00:00:00.031000000
544992,Application_509226930,W_Assess potential fraud,2016/12/19 16:29:23.685,2016/12/20 05:21:41.345,0 days 03:42:16.485000000,0 days 12:52:17.660000000,0 days 16:34:34.145000000
544993,Application_509226930,W_Complete application,2016/12/20 05:21:41.353,2016/12/20 05:21:41.353,0 days 12:52:17.668000000,0 days 00:00:00.000000000,0 days 12:52:17.668000000
548121,Application_123758220,W_Assess potential fraud,2016/12/21 13:50:00.630,2016/12/22 05:25:32.087,0 days 00:22:07.283000000,0 days 15:35:31.457000000,0 days 15:57:38.740000000
548122,Application_123758220,W_Complete application,2016/12/22 05:25:32.095,2016/12/22 05:25:32.095,0 days 15:35:31.465000000,0 days 00:00:00.000000000,0 days 15:35:31.465000000
548146,Application_1076932760,W_Assess potential fraud,2016/12/27 11:09:06.170,2016/12/27 12:20:21.128,5 days 02:30:41.473000000,0 days 01:11:14.958000000,5 days 03:41:56.431000000
548147,Application_1076932760,A_Denied,2016/12/27 12:20:21.101,2016/12/27 12:20:21.101,0 days 01:11:14.931000000,0 days 00:00:00.000000000,0 days 01:11:14.931000000
548148,Application_1076932760,O_Refused,2016/12/27 12:20:21.120,2016/12/27 12:20:21.120,0 days 00:00:00.019000000,0 days 00:00:00.000000000,0 days 00:00:00.019000000
553948,Application_1548659687,W_Assess potential fraud,2017/01/12 06:07:11.264,2017/01/16 05:17:36.663,0 days 18:57:16.058000000,3 days 23:10:25.399000000,4 days 18:07:41.457000000
553949,Application_1548659687,W_Validate application,2017/01/16 05:17:36.670,2017/01/16 05:17:36.670,3 days 23:10:25.406000000,0 days 00:00:00.000000000,3 days 23:10:25.406000000
555605,Application_1568546217,W_Assess potential fraud,2017/01/10 09:24:02.002,2017/01/10 09:24:20.770,0 days 21:13:07.430000000,0 days 00:00:18.768000000,0 days 21:13:26.198000000
555606,Application_1568546217,W_Assess potential fraud,2017/01/10 09:24:20.777,2017/01/12 07:43:29.735,0 days 00:00:18.775000000,1 days 22:19:08.958000000,1 days 22:19:27.733000000
555607,Application_1568546217,W_Validate application,2017/01/12 07:43:29.741,2017/01/12 07:43:29.741,1 days 22:19:08.964000000,0 days 00:00:00.000000000,1 days 22:19:08.964000000
556016,Application_592054830,W_Assess potential fraud,2017/01/12 07:08:33.023,2017/01/12 11:16:27.373,0 days 01:07:20.454000000,0 days 04:07:54.350000000,0 days 05:15:14.804000000
556017,Application_592054830,W_Validate application,2017/01/12 11:16:27.382,2017/01/12 11:16:27.382,0 days 04:07:54.359000000,0 days 00:00:00.000000000,0 days 04:07:54.359000000
558310,Application_688832703,W_Assess potential fraud,2017/01/02 06:13:32.726,2017/01/02 06:39:08.828,2 days 22:53:42.599000000,0 days 00:25:36.102000000,2 days 23:19:18.701000000
558311,Application_688832703,W_Complete application,2017/01/02 06:39:08.835,2017/01/02 06:39:08.835,0 days 00:25:36.109000000,0 days 00:00:00.000000000,0 days 00:25:36.109000000
