﻿,Case ID,Activity,Start Timestamp,Complete Timestamp,Delta Trans,Delta Exec,Delta
6458,Application_2120232738,W_Assess potential fraud,2016/01/25 11:44:16.668,2016/01/25 11:44:16.668,0 days 01:41:37.923000000,0 days 00:00:00.000000000,0 days 01:41:37.923000000
14565,Application_217630695,W_Assess potential fraud,2016/01/21 04:30:06.062,2016/01/21 04:30:06.062,0 days 17:18:34.735000000,0 days 00:00:00.000000000,0 days 17:18:34.735000000
15827,Application_288955533,W_Assess potential fraud,2016/01/27 08:41:35.517,2016/01/27 12:01:25.035,1 days 00:38:09.409000000,0 days 03:19:49.518000000,1 days 03:57:58.927000000
21296,Application_1340833880,W_Assess potential fraud,2016/02/10 13:09:45.896,2016/02/15 05:47:07.042,2 days 05:32:39.964000000,4 days 16:37:21.146000000,6 days 22:10:01.110000000
23933,Application_1709057207,W_Assess potential fraud,2016/02/17 11:25:10.669,2016/02/19 05:42:10.670,5 days 02:54:39.568000000,1 days 18:17:00.001000000,6 days 21:11:39.569000000
36410,Application_696136281,W_Assess potential fraud,2016/02/03 08:00:26.769,2016/02/04 12:26:43.951,0 days 00:48:47.612000000,1 days 04:26:17.182000000,1 days 05:15:04.794000000
41288,Application_2143933622,W_Assess potential fraud,2016/02/12 06:32:04.173,2016/02/12 06:32:04.173,0 days 18:38:14.477000000,0 days 00:00:00.000000000,0 days 18:38:14.477000000
44174,Application_258789438,W_Assess potential fraud,2016/02/18 10:03:42.861,2016/02/18 10:03:42.861,0 days 23:29:45.368000000,0 days 00:00:00.000000000,0 days 23:29:45.368000000
44686,Application_210176751,W_Assess potential fraud,2016/02/03 05:14:36.858,2016/02/03 05:14:36.858,0 days 00:00:33.452000000,0 days 00:00:00.000000000,0 days 00:00:33.452000000
44764,Application_1858876732,W_Assess potential fraud,2016/02/03 05:15:08.552,2016/02/03 07:03:46.664,0 days 09:17:59.929000000,0 days 01:48:38.112000000,0 days 11:06:38.041000000
48648,Application_452976509,W_Assess potential fraud,2016/02/17 06:43:04.710,2016/02/17 12:34:22.769,0 days 19:09:19.568000000,0 days 05:51:18.059000000,1 days 01:00:37.627000000
57386,Application_1445931328,W_Assess potential fraud,2016/02/23 10:59:24.211,2016/02/24 03:38:11.201,4 days 23:30:33.523000000,0 days 16:38:46.990000000,5 days 16:09:20.513000000
62754,Application_1341217021,W_Assess potential fraud,2016/02/25 10:37:26.089,2016/02/25 10:37:26.089,1 days 03:31:54.932000000,0 days 00:00:00.000000000,1 days 03:31:54.932000000
65326,Application_1872274352,W_Assess potential fraud,2016/03/25 05:41:25.792,2016/03/29 10:24:29.899,0 days 23:33:29.067000000,4 days 04:43:04.107000000,5 days 04:16:33.174000000
66713,Application_612471425,W_Assess potential fraud,2016/03/09 05:37:08.947,2016/03/09 05:37:08.947,1 days 17:17:12.720000000,0 days 00:00:00.000000000,1 days 17:17:12.720000000
76479,Application_1689887740,W_Assess potential fraud,2016/03/09 07:40:19.113,2016/03/09 07:40:19.113,0 days 03:40:10.856000000,0 days 00:00:00.000000000,0 days 03:40:10.856000000
77195,Application_2061860558,W_Assess potential fraud,2016/03/08 10:20:26.441,2016/03/08 10:46:42.280,0 days 01:29:55.430000000,0 days 00:26:15.839000000,0 days 01:56:11.269000000
82143,Application_1678456431,W_Assess potential fraud,2016/03/01 04:27:32.012,2016/03/01 04:59:26.805,0 days 00:12:53.144000000,0 days 00:31:54.793000000,0 days 00:44:47.937000000
85982,Application_1747310451,W_Assess potential fraud,2016/04/05 11:00:02.549,2016/04/05 11:00:02.549,0 days 00:00:26.725000000,0 days 00:00:00.000000000,0 days 00:00:26.725000000
86223,Application_1408001044,W_Assess potential fraud,2016/03/04 05:20:23.039,2016/03/04 05:20:23.039,0 days 14:04:06.127000000,0 days 00:00:00.000000000,0 days 14:04:06.127000000
87062,Application_1787440277,W_Assess potential fraud,2016/03/04 09:51:06.976,2016/03/04 09:51:06.976,0 days 03:00:16.942000000,0 days 00:00:00.000000000,0 days 03:00:16.942000000
87343,Application_960750666,W_Assess potential fraud,2016/04/06 04:47:14.748,2016/04/06 04:47:14.748,0 days 02:15:01.848000000,0 days 00:00:00.000000000,0 days 02:15:01.848000000
90855,Application_581159301,W_Assess potential fraud,2016/03/22 05:42:08.398,2016/03/23 07:59:35.895,5 days 17:23:05.454000000,1 days 02:17:27.497000000,6 days 19:40:32.951000000
97337,Application_900460993,W_Assess potential fraud,2016/03/22 06:31:38.101,2016/03/22 06:31:38.101,0 days 00:45:49.423000000,0 days 00:00:00.000000000,0 days 00:45:49.423000000
102027,Application_1795164430,W_Assess potential fraud,2016/04/06 06:26:58.370,2016/04/06 06:26:58.370,1 days 00:51:53.853000000,0 days 00:00:00.000000000,1 days 00:51:53.853000000
110647,Application_865530320,W_Assess potential fraud,2016/03/31 07:52:19.894,2016/03/31 08:37:56.189,2 days 01:39:34.620000000,0 days 00:45:36.295000000,2 days 02:25:10.915000000
114726,Application_939691189,W_Assess potential fraud,2016/04/20 08:30:48.661,2016/04/20 08:30:48.661,13 days 01:43:14.127000000,0 days 00:00:00.000000000,13 days 01:43:14.127000000
120074,Application_1308956644,W_Assess potential fraud,2016/04/06 04:09:01.450,2016/04/06 04:09:01.450,0 days 18:07:51.814000000,0 days 00:00:00.000000000,0 days 18:07:51.814000000
122782,Application_363955305,W_Assess potential fraud,2016/04/13 06:30:33.146,2016/04/13 06:30:33.146,1 days 00:05:15.871000000,0 days 00:00:00.000000000,1 days 00:05:15.871000000
128817,Application_1085885640,W_Assess potential fraud,2016/04/18 05:00:54.147,2016/04/18 06:51:39.085,4 days 21:06:59.119000000,0 days 01:50:44.938000000,4 days 22:57:44.057000000
131294,Application_1676196092,W_Assess potential fraud,2016/05/19 10:58:28.438,2016/05/19 10:58:28.438,1 days 03:16:59.939000000,0 days 00:00:00.000000000,1 days 03:16:59.939000000
132402,Application_1475803733,W_Assess potential fraud,2016/04/15 06:44:01.490,2016/04/15 06:44:01.490,1 days 00:25:54.019000000,0 days 00:00:00.000000000,1 days 00:25:54.019000000
146465,Application_1627096390,W_Assess potential fraud,2016/04/26 07:27:11.832,2016/04/26 07:27:11.832,4 days 00:47:03.778000000,0 days 00:00:00.000000000,4 days 00:47:03.778000000
148930,Application_2142045957,W_Assess potential fraud,2016/04/29 07:19:45.251,2016/04/29 07:19:45.251,1 days 00:09:21.397000000,0 days 00:00:00.000000000,1 days 00:09:21.397000000
150898,Application_400847861,W_Assess potential fraud,2016/05/09 07:31:10.541,2016/05/09 07:31:10.541,0 days 00:00:07.732000000,0 days 00:00:00.000000000,0 days 00:00:07.732000000
151354,Application_2093424318,W_Assess potential fraud,2016/05/04 07:15:04.078,2016/05/04 07:15:04.078,4 days 23:41:56.681000000,0 days 00:00:00.000000000,4 days 23:41:56.681000000
151608,Application_1963573946,W_Assess potential fraud,2016/05/27 09:56:06.244,2016/05/31 03:22:00.184,0 days 03:46:59.439000000,3 days 17:25:53.940000000,3 days 21:12:53.379000000
151995,Application_860809246,W_Assess potential fraud,2016/05/10 05:21:21.091,2016/05/10 05:21:21.091,0 days 19:42:56.449000000,0 days 00:00:00.000000000,0 days 19:42:56.449000000
154885,Application_1860145301,W_Assess potential fraud,2016/05/10 04:36:41.554,2016/05/10 06:47:20.670,3 days 22:32:15.183000000,0 days 02:10:39.116000000,4 days 00:42:54.299000000
160656,Application_534041276,W_Assess potential fraud,2016/05/12 09:55:29.921,2016/05/13 04:07:52.977,0 days 00:00:25.050000000,0 days 18:12:23.056000000,0 days 18:12:48.106000000
161378,Application_1003257895,W_Assess potential fraud,2016/06/15 06:31:55.688,2016/06/15 06:31:55.688,0 days 03:05:33.998000000,0 days 00:00:00.000000000,0 days 03:05:33.998000000
166133,Application_978946302,W_Assess potential fraud,2016/05/31 05:56:38.606,2016/06/06 06:29:44.485,0 days 01:19:16.685000000,6 days 00:33:05.879000000,6 days 01:52:22.564000000
166588,Application_1031629108,W_Assess potential fraud,2016/05/04 07:24:43.513,2016/05/04 09:43:46.496,0 days 05:24:48.509000000,0 days 02:19:02.983000000,0 days 07:43:51.492000000
167529,Application_237507077,W_Assess potential fraud,2016/06/09 06:30:07.661,2016/06/09 10:23:10.177,1 days 00:48:29.652000000,0 days 03:53:02.516000000,1 days 04:41:32.168000000
168240,Application_831530055,W_Assess potential fraud,2016/05/26 04:28:25.834,2016/05/26 04:28:25.834,0 days 00:04:24.292000000,0 days 00:00:00.000000000,0 days 00:04:24.292000000
168347,Application_826015211,W_Assess potential fraud,2016/05/12 09:04:33.488,2016/05/12 09:04:33.488,1 days 04:20:08.286000000,0 days 00:00:00.000000000,1 days 04:20:08.286000000
169842,Application_647762796,W_Assess potential fraud,2016/05/31 03:13:01.174,2016/05/31 05:12:42.010,0 days 20:15:04.416000000,0 days 01:59:40.836000000,0 days 22:14:45.252000000
169994,Application_2126227408,W_Assess potential fraud,2016/06/21 04:51:40.715,2016/06/23 04:53:31.115,3 days 23:31:10.470000000,2 days 00:01:50.400000000,5 days 23:33:00.870000000
172361,Application_1552373930,W_Assess potential fraud,2016/06/02 07:15:02.524,2016/06/02 07:15:02.524,6 days 22:16:42.605000000,0 days 00:00:00.000000000,6 days 22:16:42.605000000
172798,Application_894816076,W_Assess potential fraud,2016/06/02 10:32:28.693,2016/06/02 10:32:28.693,1 days 02:42:09.179000000,0 days 00:00:00.000000000,1 days 02:42:09.179000000
173715,Application_412627378,W_Assess potential fraud,2016/05/19 09:41:17.844,2016/05/19 09:41:17.844,0 days 01:57:53.984000000,0 days 00:00:00.000000000,0 days 01:57:53.984000000
176984,Application_1622936964,W_Assess potential fraud,2016/05/20 06:28:43.534,2016/05/20 06:28:43.534,2 days 01:50:42.064000000,0 days 00:00:00.000000000,2 days 01:50:42.064000000
191066,Application_131383905,W_Assess potential fraud,2016/07/01 03:55:16.011,2016/07/01 03:55:16.011,2 days 16:53:04.856000000,0 days 00:00:00.000000000,2 days 16:53:04.856000000
195044,Application_1548755079,W_Assess potential fraud,2016/05/27 07:48:17.485,2016/05/27 07:50:37.290,0 days 00:08:28.191000000,0 days 00:02:19.805000000,0 days 00:10:47.996000000
199462,Application_1985722666,W_Assess potential fraud,2016/06/21 08:27:01.026,2016/06/21 08:27:01.026,19 days 01:48:40.817000000,0 days 00:00:00.000000000,19 days 01:48:40.817000000
202570,Application_1221917431,W_Assess potential fraud,2016/07/04 10:16:11.757,2016/07/05 08:36:11.613,0 days 05:19:08.139000000,0 days 22:19:59.856000000,1 days 03:39:07.995000000
203587,Application_831568516,W_Assess potential fraud,2016/06/20 03:59:38.056,2016/06/20 09:00:03.260,4 days 21:51:14.788000000,0 days 05:00:25.204000000,5 days 02:51:39.992000000
213414,Application_1908753603,W_Assess potential fraud,2016/06/17 09:40:48.263,2016/06/17 09:40:48.263,0 days 03:55:28.592000000,0 days 00:00:00.000000000,0 days 03:55:28.592000000
215660,Application_158116531,W_Assess potential fraud,2016/07/22 08:41:45.332,2016/07/25 03:29:49.738,4 days 00:32:46.125000000,2 days 18:48:04.406000000,6 days 19:20:50.531000000
216522,Application_523421470,W_Assess potential fraud,2016/06/29 02:34:28.350,2016/06/29 02:34:28.350,1 days 20:35:46.543000000,0 days 00:00:00.000000000,1 days 20:35:46.543000000
218122,Application_1177434639,W_Assess potential fraud,2016/06/13 03:24:56.673,2016/06/13 03:24:56.673,1 days 19:21:25.512000000,0 days 00:00:00.000000000,1 days 19:21:25.512000000
221897,Application_1046585954,W_Assess potential fraud,2016/07/07 06:25:12.645,2016/07/07 06:25:12.645,0 days 21:26:59.020000000,0 days 00:00:00.000000000,0 days 21:26:59.020000000
227871,Application_493974108,W_Assess potential fraud,2016/07/13 04:03:46.575,2016/07/14 08:25:56.856,6 days 22:07:05.169000000,1 days 04:22:10.281000000,8 days 02:29:15.450000000
229444,Application_1637154472,W_Assess potential fraud,2016/06/30 08:00:12.081,2016/07/01 08:25:12.586,2 days 23:27:30.943000000,1 days 00:25:00.505000000,3 days 23:52:31.448000000
238214,Application_177083889,W_Assess potential fraud,2016/06/30 09:54:12.831,2016/06/30 09:54:12.831,1 days 05:58:08.285000000,0 days 00:00:00.000000000,1 days 05:58:08.285000000
247257,Application_2009663081,W_Assess potential fraud,2016/06/28 03:02:29.554,2016/06/28 08:54:57.188,0 days 08:33:42.259000000,0 days 05:52:27.634000000,0 days 14:26:09.893000000
257599,Application_1900025903,W_Assess potential fraud,2016/07/13 03:57:17.746,2016/07/14 03:46:34.553,4 days 16:18:39.624000000,0 days 23:49:16.807000000,5 days 16:07:56.431000000
266960,Application_473455481,W_Assess potential fraud,2016/08/25 08:03:39.706,2016/08/25 08:03:39.706,7 days 03:31:46.823000000,0 days 00:00:00.000000000,7 days 03:31:46.823000000
267471,Application_2124133128,W_Assess potential fraud,2016/07/07 05:39:42.802,2016/07/07 07:03:16.574,0 days 00:34:14.902000000,0 days 01:23:33.772000000,0 days 01:57:48.674000000
269501,Application_250077480,W_Assess potential fraud,2016/07/18 09:41:55.751,2016/07/18 09:41:55.751,2 days 22:43:44.062000000,0 days 00:00:00.000000000,2 days 22:43:44.062000000
276979,Application_613766151,W_Assess potential fraud,2016/08/11 06:55:22.409,2016/08/15 09:14:21.109,7 days 00:02:23.036000000,4 days 02:18:58.700000000,11 days 02:21:21.736000000
294080,Application_1202495955,W_Assess potential fraud,2016/07/25 02:46:53.898,2016/07/25 02:46:53.898,2 days 15:48:57.965000000,0 days 00:00:00.000000000,2 days 15:48:57.965000000
316057,Application_522081554,W_Assess potential fraud,2016/08/24 10:23:37.380,2016/08/24 10:23:37.380,7 days 05:52:22.149000000,0 days 00:00:00.000000000,7 days 05:52:22.149000000
326223,Application_96907665,W_Assess potential fraud,2016/08/15 04:06:30.799,2016/08/15 04:06:30.799,2 days 18:28:33.880000000,0 days 00:00:00.000000000,2 days 18:28:33.880000000
337656,Application_381535196,W_Assess potential fraud,2016/09/09 06:23:01.190,2016/09/19 08:53:19.652,2 days 22:21:50.154000000,10 days 02:30:18.462000000,13 days 00:52:08.616000000
345378,Application_1502074864,W_Assess potential fraud,2016/08/22 06:42:22.354,2016/08/22 07:00:13.306,0 days 00:34:07.793000000,0 days 00:17:50.952000000,0 days 00:51:58.745000000
345603,Application_724249522,W_Assess potential fraud,2016/09/05 06:28:53.884,2016/09/05 06:28:53.884,4 days 22:07:22.936000000,0 days 00:00:00.000000000,4 days 22:07:22.936000000
347676,Application_376847764,W_Assess potential fraud,2016/09/08 08:09:40.215,2016/09/08 08:09:40.215,2 days 01:08:32.264000000,0 days 00:00:00.000000000,2 days 01:08:32.264000000
357224,Application_2084907175,W_Assess potential fraud,2016/12/02 11:39:06.644,2016/12/02 14:16:47.078,0 days 00:55:01.397000000,0 days 02:37:40.434000000,0 days 03:32:41.831000000
363227,Application_963179178,W_Assess potential fraud,2016/09/19 05:07:25.855,2016/09/19 05:07:25.855,5 days 00:25:03.747000000,0 days 00:00:00.000000000,5 days 00:25:03.747000000
364502,Application_557081147,W_Assess potential fraud,2016/09/01 08:23:57.481,2016/09/01 10:20:30.572,0 days 00:13:56.916000000,0 days 01:56:33.091000000,0 days 02:10:30.007000000
365617,Application_1650220511,W_Assess potential fraud,2016/10/03 06:07:11.728,2016/10/03 06:07:11.728,3 days 00:34:52.229000000,0 days 00:00:00.000000000,3 days 00:34:52.229000000
369695,Application_1164458783,W_Assess potential fraud,2016/09/20 05:13:00.842,2016/09/20 05:13:00.842,0 days 17:27:03.937000000,0 days 00:00:00.000000000,0 days 17:27:03.937000000
373819,Application_1075376537,W_Assess potential fraud,2016/09/29 06:16:58.924,2016/09/29 06:16:58.924,6 days 21:04:44.424000000,0 days 00:00:00.000000000,6 days 21:04:44.424000000
381570,Application_791773717,W_Assess potential fraud,2016/09/12 08:35:30.344,2016/09/12 08:39:35.991,0 days 23:31:43.139000000,0 days 00:04:05.647000000,0 days 23:35:48.786000000
388722,Application_135534555,W_Assess potential fraud,2016/09/15 04:09:39.377,2016/09/15 04:32:08.674,0 days 11:05:52.937000000,0 days 00:22:29.297000000,0 days 11:28:22.234000000
393764,Application_1558682423,W_Assess potential fraud,2016/09/19 04:26:38.768,2016/09/19 07:02:53.744,0 days 23:34:40.560000000,0 days 02:36:14.976000000,1 days 02:10:55.536000000
394799,Application_489389643,W_Assess potential fraud,2016/09/23 09:52:36.738,2016/09/26 10:38:03.508,0 days 00:32:29.685000000,3 days 00:45:26.770000000,3 days 01:17:56.455000000
400844,Application_1223286385,W_Assess potential fraud,2016/09/28 11:19:02.550,2016/09/29 07:26:01.997,1 days 01:41:36.367000000,0 days 20:06:59.447000000,1 days 21:48:35.814000000
412220,Application_91519769,W_Assess potential fraud,2016/10/07 07:10:50.406,2016/10/07 10:03:12.869,2 days 02:16:18.835000000,0 days 02:52:22.463000000,2 days 05:08:41.298000000
412222,Application_91519769,W_Assess potential fraud,2016/10/07 10:01:08.699,2016/10/07 10:01:08.699,0 days 00:51:17.470000000,0 days 00:00:00.000000000,0 days 00:51:17.470000000
413376,Application_1452738787,W_Assess potential fraud,2016/10/10 03:58:40.431,2016/10/10 03:58:40.431,2 days 20:52:34.329000000,0 days 00:00:00.000000000,2 days 20:52:34.329000000
414811,Application_1055618357,W_Assess potential fraud,2016/10/12 13:03:59.323,2016/10/12 13:03:59.323,2 days 02:23:47.728000000,0 days 00:00:00.000000000,2 days 02:23:47.728000000
422183,Application_165594970,W_Assess potential fraud,2016/10/04 06:45:12.896,2016/10/04 06:45:12.896,0 days 00:03:46.373000000,0 days 00:00:00.000000000,0 days 00:03:46.373000000
425108,Application_267531989,W_Assess potential fraud,2016/10/20 07:42:51.998,2016/10/20 07:42:51.998,0 days 01:04:07.432000000,0 days 00:00:00.000000000,0 days 01:04:07.432000000
428641,Application_255326627,W_Assess potential fraud,2016/10/17 10:24:30.455,2016/10/17 10:24:30.455,0 days 03:17:15.223000000,0 days 00:00:00.000000000,0 days 03:17:15.223000000
428784,Application_1796529138,W_Assess potential fraud,2016/10/28 14:19:16.698,2016/10/28 14:19:16.698,9 days 01:29:27.347000000,0 days 00:00:00.000000000,9 days 01:29:27.347000000
437592,Application_671678776,W_Assess potential fraud,2016/10/13 07:40:34.633,2016/10/13 07:40:34.633,0 days 19:18:28.898000000,0 days 00:00:00.000000000,0 days 19:18:28.898000000
442930,Application_1981121598,W_Assess potential fraud,2016/10/17 06:30:36.383,2016/10/17 06:30:36.383,0 days 16:23:18.773000000,0 days 00:00:00.000000000,0 days 16:23:18.773000000
448039,Application_1264408299,W_Assess potential fraud,2016/11/16 11:44:58.864,2016/11/16 11:44:58.864,0 days 02:36:29.789000000,0 days 00:00:00.000000000,0 days 02:36:29.789000000
454127,Application_125846800,W_Assess potential fraud,2016/11/02 06:51:17.359,2016/11/02 06:51:17.359,9 days 01:02:10.724000000,0 days 00:00:00.000000000,9 days 01:02:10.724000000
456392,Application_1614113082,W_Assess potential fraud,2016/10/24 10:29:01.904,2016/10/24 10:29:33.614,0 days 01:49:27.194000000,0 days 00:00:31.710000000,0 days 01:49:58.904000000
469871,Application_1498610522,W_Assess potential fraud,2016/11/07 08:34:12.640,2016/11/07 08:34:12.640,6 days 01:26:26.350000000,0 days 00:00:00.000000000,6 days 01:26:26.350000000
470100,Application_483126363,W_Assess potential fraud,2016/12/08 10:59:49.328,2016/12/08 10:59:49.328,0 days 00:00:36.146000000,0 days 00:00:00.000000000,0 days 00:00:36.146000000
471250,Application_1153365113,W_Assess potential fraud,2016/11/21 10:58:52.530,2016/11/21 10:58:52.530,0 days 00:12:22.185000000,0 days 00:00:00.000000000,0 days 00:12:22.185000000
477127,Application_184083402,W_Assess potential fraud,2016/11/14 12:03:49.435,2016/11/14 12:03:49.435,0 days 00:07:29.221000000,0 days 00:00:00.000000000,0 days 00:07:29.221000000
477585,Application_1919383044,W_Assess potential fraud,2016/11/21 10:13:09.586,2016/11/21 10:13:09.586,4 days 17:28:43.204000000,0 days 00:00:00.000000000,4 days 17:28:43.204000000
479217,Application_1322558151,W_Assess potential fraud,2016/11/05 13:25:19.718,2016/11/05 13:25:19.718,0 days 00:04:58.934000000,0 days 00:00:00.000000000,0 days 00:04:58.934000000
482288,Application_77518101,W_Assess potential fraud,2016/11/22 07:23:13.459,2016/11/22 07:23:13.459,7 days 00:09:13.315000000,0 days 00:00:00.000000000,7 days 00:09:13.315000000
487311,Application_1405826636,W_Assess potential fraud,2016/11/21 08:47:59.932,2016/11/21 14:02:30.874,0 days 00:58:07.418000000,0 days 05:14:30.942000000,0 days 06:12:38.360000000
507198,Application_834563183,W_Assess potential fraud,2017/01/11 06:38:33.063,2017/01/11 06:38:33.063,0 days 14:22:07.250000000,0 days 00:00:00.000000000,0 days 14:22:07.250000000
508279,Application_1443913959,W_Assess potential fraud,2016/12/06 13:19:02.784,2016/12/06 13:19:02.784,0 days 02:46:32.253000000,0 days 00:00:00.000000000,0 days 02:46:32.253000000
523427,Application_238582681,W_Assess potential fraud,2016/12/08 11:00:00.704,2016/12/08 11:07:31.378,4 days 15:53:24.712000000,0 days 00:07:30.674000000,4 days 16:00:55.386000000
524092,Application_561182430,W_Assess potential fraud,2016/12/23 08:43:38.062,2016/12/27 05:19:16.154,1 days 00:10:02.311000000,3 days 20:35:38.092000000,4 days 20:45:40.403000000
530235,Application_1128945225,W_Assess potential fraud,2016/12/19 12:31:12.516,2016/12/19 12:31:12.516,9 days 03:45:58.694000000,0 days 00:00:00.000000000,9 days 03:45:58.694000000
531192,Application_1562532315,W_Assess potential fraud,2016/12/21 07:59:15.112,2016/12/21 13:28:41.413,0 days 00:38:26.427000000,0 days 05:29:26.301000000,0 days 06:07:52.728000000
538553,Application_679723515,W_Assess potential fraud,2016/12/22 07:17:59.539,2016/12/22 07:17:59.539,0 days 00:00:32.964000000,0 days 00:00:00.000000000,0 days 00:00:32.964000000
545698,Application_333750415,W_Assess potential fraud,2016/12/29 10:21:46.319,2017/01/02 06:19:49.027,0 days 01:21:10.725000000,3 days 19:58:02.708000000,3 days 21:19:13.433000000
553460,Application_307213807,W_Assess potential fraud,2016/12/28 05:05:52.299,2016/12/28 05:07:25.762,0 days 15:10:30.224000000,0 days 00:01:33.463000000,0 days 15:12:03.687000000
555928,Application_1836826811,W_Assess potential fraud,2017/01/09 06:47:44.452,2017/01/09 13:01:38.457,2 days 17:44:57.872000000,0 days 06:13:54.005000000,2 days 23:58:51.877000000
556527,Application_1065521969,W_Assess potential fraud,2017/01/24 05:40:38.837,2017/01/24 05:40:38.837,24 days 17:15:36.920000000,0 days 00:00:00.000000000,24 days 17:15:36.920000000
